::ffff:172.18.0.2 - OPTIONS /api/v1/organisations/mine HTTP/1.1 200 2 - 0.274 ms
::ffff:172.18.0.2 - GET /api/v1/organisations/mine HTTP/1.1 304 - - 215.399 ms
::ffff:172.18.0.2 - OPTIONS /api/v1/projects/flat HTTP/1.1 200 2 - 0.162 ms
::ffff:172.18.0.2 - OPTIONS /api/v1/projects/5e6620d376d8950077a840bc/activities?isCritical=true HTTP/1.1 200 2 - 0.130 ms
::ffff:172.18.0.2 - GET /api/v1/projects/5e6620d376d8950077a840bc/activities?isCritical=true HTTP/1.1 200 2570 - 8.422 ms
::ffff:172.18.0.2 - GET /api/v1/projects/flat HTTP/1.1 200 1076 - 27.071 ms
::ffff:172.18.0.2 - OPTIONS /api/v1/organisations/mine HTTP/1.1 200 2 - 0.263 ms
::ffff:172.18.0.2 - GET /api/v1/organisations/mine HTTP/1.1 304 - - 23.692 ms
::ffff:172.18.0.2 - OPTIONS /api/v1/projects/flat HTTP/1.1 200 2 - 0.307 ms
::ffff:172.18.0.2 - OPTIONS /api/v1/projects/flat?organisation=5e85ee633daec3003540a2e1 HTTP/1.1 200 2 - 0.243 ms
::ffff:172.18.0.2 - GET /api/v1/projects/flat HTTP/1.1 200 1076 - 50.419 ms
::ffff:172.18.0.2 - GET /api/v1/projects/flat?organisation=5e85ee633daec3003540a2e1 HTTP/1.1 200 1076 - 38.110 ms
::ffff:172.18.0.2 - OPTIONS /api/v1/projects/5e6620d376d8950077a840bc/activities?isCritical=true HTTP/1.1 200 2 - 0.244 ms
::ffff:172.18.0.2 - GET /api/v1/projects/5e6620d376d8950077a840bc/activities?isCritical=true HTTP/1.1 200 2570 - 14.960 ms
::ffff:172.18.0.2 - OPTIONS /api/v1/projects/5e6620d376d8950077a840bc/activities?isCritical=true HTTP/1.1 200 2 - 0.245 ms
::ffff:172.18.0.2 - GET /api/v1/projects/5e6620d376d8950077a840bc/activities?isCritical=true HTTP/1.1 200 2570 - 10.779 ms
::ffff:172.18.0.2 - OPTIONS /api/v1/projects/5e6620d376d8950077a840bc/activities?isCritical=true HTTP/1.1 200 2 - 0.140 ms
::ffff:172.18.0.2 - GET /api/v1/projects/5e6620d376d8950077a840bc/activities?isCritical=true HTTP/1.1 200 2570 - 16.837 ms
::ffff:172.18.0.2 - OPTIONS /api/v1/projects/5e6620d376d8950077a840bc/activities?isCritical=true HTTP/1.1 200 2 - 0.146 ms
::ffff:172.18.0.2 - GET /api/v1/projects/5e6620d376d8950077a840bc/activities?isCritical=true HTTP/1.1 200 2570 - 6.570 ms
::ffff:172.18.0.2 - OPTIONS /api/v1/projects/5e6620d376d8950077a840bc/activities?isCritical=true HTTP/1.1 200 2 - 0.139 ms
::ffff:172.18.0.2 - GET /api/v1/projects/5e6620d376d8950077a840bc/activities?isCritical=true HTTP/1.1 200 2570 - 6.616 ms
::ffff:172.18.0.2 - OPTIONS /api/v1/projects/5e6620d376d8950077a840bc/activities?isCritical=true HTTP/1.1 200 2 - 0.175 ms
::ffff:172.18.0.2 - GET /api/v1/projects/5e6620d376d8950077a840bc/activities?isCritical=true HTTP/1.1 200 2570 - 7.342 ms
::ffff:172.18.0.2 - OPTIONS /api/v1/projects/5e6620d376d8950077a840bc HTTP/1.1 200 2 - 0.190 ms
::ffff:172.18.0.2 - GET /api/v1/projects/5e6620d376d8950077a840bc HTTP/1.1 200 2890 - 20.464 ms
::ffff:172.18.0.2 - OPTIONS /api/v1/projects/flat HTTP/1.1 200 2 - 0.183 ms
::ffff:172.18.0.2 - OPTIONS /api/v1/projects/5e6620d376d8950077a840bc HTTP/1.1 200 2 - 0.168 ms
::ffff:172.18.0.2 - GET /api/v1/projects/5e6620d376d8950077a840bc HTTP/1.1 200 2890 - 25.847 ms
::ffff:172.18.0.2 - GET /api/v1/projects/flat HTTP/1.1 200 1076 - 51.265 ms
::ffff:172.18.0.2 - OPTIONS /api/v1/projects/flat HTTP/1.1 200 2 - 0.170 ms
::ffff:172.18.0.2 - GET /api/v1/projects/flat HTTP/1.1 200 1076 - 32.378 ms
::ffff:172.18.0.2 - OPTIONS /api/v1/organisations/mine HTTP/1.1 200 2 - 0.147 ms
::ffff:172.18.0.2 - GET /api/v1/organisations/mine HTTP/1.1 304 - - 13.462 ms
::ffff:172.18.0.2 - OPTIONS /api/v1/projects/flat HTTP/1.1 200 2 - 0.140 ms
::ffff:172.18.0.2 - OPTIONS /api/v1/projects/5e6620d376d8950077a840bc/activities?isCritical=true HTTP/1.1 200 2 - 0.139 ms
::ffff:172.18.0.2 - GET /api/v1/projects/flat HTTP/1.1 200 1076 - 18.295 ms
::ffff:172.18.0.2 - GET /api/v1/projects/5e6620d376d8950077a840bc/activities?isCritical=true HTTP/1.1 200 2570 - 11.636 ms
::ffff:172.18.0.2 - GET /api/v1/projects/flat HTTP/1.1 200 1076 - 17.699 ms
::ffff:172.18.0.2 - GET /api/v1/projects/flat HTTP/1.1 200 1076 - 40.188 ms
::ffff:172.18.0.2 - OPTIONS /api/v1/projects/flat HTTP/1.1 200 2 - 0.152 ms
::ffff:172.18.0.2 - GET /api/v1/projects/flat HTTP/1.1 200 1076 - 19.112 ms
::ffff:172.18.0.2 - GET /api/v1/projects/flat HTTP/1.1 200 1076 - 22.690 ms
::ffff:172.18.0.2 - OPTIONS /api/v1/projects/flat HTTP/1.1 200 2 - 0.141 ms
::ffff:172.18.0.2 - OPTIONS /api/v1/projects/5e6620d376d8950077a840bc/activities?isCritical=true HTTP/1.1 200 2 - 0.108 ms
::ffff:172.18.0.2 - GET /api/v1/projects/5e6620d376d8950077a840bc/activities?isCritical=true HTTP/1.1 200 2570 - 6.593 ms
::ffff:172.18.0.2 - GET /api/v1/projects/flat HTTP/1.1 200 1076 - 32.132 ms
::ffff:172.18.0.2 - GET /api/v1/projects/flat HTTP/1.1 200 1076 - 23.245 ms
::ffff:172.18.0.2 - OPTIONS /api/v1/projects/flat HTTP/1.1 200 2 - 0.148 ms
::ffff:172.18.0.2 - GET /api/v1/projects/flat HTTP/1.1 200 1076 - 30.599 ms
::ffff:172.18.0.2 - OPTIONS /api/v1/projects/5e6620d376d8950077a840bc/activities?isCritical=true HTTP/1.1 200 2 - 1.368 ms
::ffff:172.18.0.2 - GET /api/v1/projects/flat HTTP/1.1 200 1076 - 22.953 ms
::ffff:172.18.0.2 - GET /api/v1/projects/5e6620d376d8950077a840bc/activities?isCritical=true HTTP/1.1 200 2570 - 9.733 ms
::ffff:172.18.0.2 - GET /api/v1/projects/flat HTTP/1.1 200 1076 - 23.418 ms
::ffff:172.18.0.2 - OPTIONS /api/v1/projects/flat HTTP/1.1 200 2 - 0.204 ms
::ffff:172.18.0.2 - GET /api/v1/projects/flat HTTP/1.1 200 1076 - 44.785 ms
::ffff:172.18.0.2 - GET /api/v1/projects/flat HTTP/1.1 200 1076 - 34.829 ms
::ffff:172.18.0.2 - OPTIONS /api/v1/projects/flat HTTP/1.1 200 2 - 0.151 ms
::ffff:172.18.0.2 - GET /api/v1/projects/flat HTTP/1.1 200 1076 - 40.125 ms
::ffff:172.18.0.2 - GET /api/v1/projects/flat HTTP/1.1 200 1076 - 23.300 ms
::ffff:172.18.0.2 - OPTIONS /api/v1/projects/flat HTTP/1.1 200 2 - 0.141 ms
::ffff:172.18.0.2 - GET /api/v1/projects/flat HTTP/1.1 200 1076 - 34.203 ms
::ffff:172.18.0.2 - OPTIONS /api/v1/projects/flat HTTP/1.1 200 2 - 0.144 ms
::ffff:172.18.0.2 - GET /api/v1/projects/flat HTTP/1.1 200 1076 - 43.238 ms
::ffff:172.18.0.2 - OPTIONS /api/v1/projects/flat HTTP/1.1 200 2 - 0.151 ms
::ffff:172.18.0.2 - GET /api/v1/projects/flat HTTP/1.1 200 1076 - 29.652 ms
::ffff:172.18.0.2 - GET /api/v1/projects/flat HTTP/1.1 200 1076 - 41.610 ms
::ffff:172.18.0.2 - OPTIONS /api/v1/projects/flat HTTP/1.1 200 2 - 0.145 ms
::ffff:172.18.0.2 - GET /api/v1/projects/flat HTTP/1.1 200 1076 - 19.399 ms
::ffff:172.18.0.2 - GET /api/v1/projects/flat HTTP/1.1 200 1076 - 48.423 ms
::ffff:172.18.0.2 - OPTIONS /api/v1/organisations/mine HTTP/1.1 200 2 - 0.145 ms
::ffff:172.18.0.2 - GET /api/v1/organisations/mine HTTP/1.1 200 253 - 19.319 ms
::ffff:172.18.0.2 - OPTIONS /api/v1/projects/flat HTTP/1.1 200 2 - 0.139 ms
::ffff:172.18.0.2 - OPTIONS /api/v1/projects/flat?organisation=5e8597013daec3003540a25e HTTP/1.1 200 2 - 0.139 ms
::ffff:172.18.0.2 - GET /api/v1/projects/flat HTTP/1.1 200 28 - 12.827 ms
::ffff:172.18.0.2 - GET /api/v1/projects/flat?organisation=5e8597013daec3003540a25e HTTP/1.1 200 28 - 9.799 ms
::ffff:172.18.0.2 - OPTIONS /api/v1/projects/flat HTTP/1.1 200 2 - 0.149 ms
::ffff:172.18.0.2 - GET /api/v1/projects/flat HTTP/1.1 200 1076 - 35.144 ms
::ffff:172.18.0.2 - OPTIONS /api/v1/projects/5e6620d376d8950077a840bc/activities?isCritical=true HTTP/1.1 200 2 - 0.123 ms
::ffff:172.18.0.2 - GET /api/v1/projects/flat HTTP/1.1 200 1076 - 26.696 ms
::ffff:172.18.0.2 - GET /api/v1/projects/5e6620d376d8950077a840bc/activities?isCritical=true HTTP/1.1 200 2570 - 5.646 ms
::ffff:172.18.0.2 - GET /api/v1/projects/flat HTTP/1.1 304 - - 12.362 ms
::ffff:172.18.0.2 - OPTIONS /api/v1/projects/flat?organisation=5e8597013daec3003540a25e HTTP/1.1 200 2 - 0.149 ms
::ffff:172.18.0.2 - GET /api/v1/projects/flat?organisation=5e8597013daec3003540a25e HTTP/1.1 304 - - 13.987 ms
::ffff:172.18.0.2 - OPTIONS /api/v1/projects/flat HTTP/1.1 200 2 - 0.147 ms
::ffff:172.18.0.2 - GET /api/v1/projects/flat HTTP/1.1 304 - - 12.488 ms
::ffff:172.18.0.2 - OPTIONS /api/v1/projects/flat?organisation=5e8597013daec3003540a25e HTTP/1.1 200 2 - 0.147 ms
::ffff:172.18.0.2 - GET /api/v1/projects/flat?organisation=5e8597013daec3003540a25e HTTP/1.1 304 - - 12.365 ms
::ffff:172.18.0.2 - GET /api/v1/projects/flat HTTP/1.1 304 - - 9.975 ms
::ffff:172.18.0.2 - GET /api/v1/projects/flat?organisation=5e8597013daec3003540a25e HTTP/1.1 304 - - 10.295 ms
::ffff:172.18.0.2 - OPTIONS /api/v1/projects/flat HTTP/1.1 200 2 - 0.178 ms
::ffff:172.18.0.2 - GET /api/v1/projects/flat HTTP/1.1 304 - - 11.346 ms
::ffff:172.18.0.2 - OPTIONS /api/v1/projects/flat?organisation=5e8597013daec3003540a25e HTTP/1.1 200 2 - 0.129 ms
::ffff:172.18.0.2 - GET /api/v1/projects/flat?organisation=5e8597013daec3003540a25e HTTP/1.1 304 - - 9.787 ms
::ffff:172.18.0.2 - OPTIONS /api/v1/projects/flat HTTP/1.1 200 2 - 0.167 ms
::ffff:172.18.0.2 - GET /api/v1/projects/flat HTTP/1.1 304 - - 10.848 ms
::ffff:172.18.0.2 - OPTIONS /api/v1/projects/flat?organisation=5e8597013daec3003540a25e HTTP/1.1 200 2 - 0.145 ms
::ffff:172.18.0.2 - GET /api/v1/projects/flat?organisation=5e8597013daec3003540a25e HTTP/1.1 304 - - 10.603 ms
::ffff:172.18.0.2 - OPTIONS /api/v1/projects/flat HTTP/1.1 200 2 - 0.145 ms
::ffff:172.18.0.2 - GET /api/v1/projects/flat HTTP/1.1 304 - - 10.259 ms
::ffff:172.18.0.2 - OPTIONS /api/v1/projects/flat?organisation=5e8597013daec3003540a25e HTTP/1.1 200 2 - 0.192 ms
::ffff:172.18.0.2 - GET /api/v1/projects/flat?organisation=5e8597013daec3003540a25e HTTP/1.1 304 - - 13.488 ms
::ffff:172.18.0.2 - OPTIONS /api/v1/projects/flat HTTP/1.1 200 2 - 0.149 ms
::ffff:172.18.0.2 - GET /api/v1/projects/flat HTTP/1.1 200 1076 - 32.885 ms
::ffff:172.18.0.2 - OPTIONS /api/v1/organisations/mine HTTP/1.1 200 2 - 0.139 ms
::ffff:172.18.0.2 - GET /api/v1/organisations/mine HTTP/1.1 200 253 - 13.156 ms
::ffff:172.18.0.2 - OPTIONS /api/v1/projects/flat HTTP/1.1 200 2 - 3.239 ms
::ffff:172.18.0.2 - OPTIONS /api/v1/projects/5e6620d376d8950077a840bc/activities?isCritical=true HTTP/1.1 200 2 - 0.105 ms
::ffff:172.18.0.2 - GET /api/v1/projects/5e6620d376d8950077a840bc/activities?isCritical=true HTTP/1.1 200 2570 - 8.657 ms
::ffff:172.18.0.2 - GET /api/v1/projects/flat HTTP/1.1 200 28 - 17.601 ms
::ffff:172.18.0.2 - GET /api/v1/projects/flat HTTP/1.1 304 - - 16.379 ms
::ffff:172.18.0.2 - GET /api/v1/projects/flat HTTP/1.1 304 - - 10.868 ms
::ffff:172.18.0.2 - OPTIONS /api/v1/organisations/mine HTTP/1.1 200 2 - 0.142 ms
::ffff:172.18.0.2 - GET /api/v1/organisations/mine HTTP/1.1 200 241 - 22.348 ms
::ffff:172.18.0.2 - OPTIONS /api/v1/projects/flat HTTP/1.1 200 2 - 0.136 ms
::ffff:172.18.0.2 - OPTIONS /api/v1/projects/flat?organisation=5e85ee633daec3003540a2e1 HTTP/1.1 200 2 - 0.083 ms
::ffff:172.18.0.2 - GET /api/v1/projects/flat HTTP/1.1 200 1076 - 23.730 ms
::ffff:172.18.0.2 - GET /api/v1/projects/flat?organisation=5e85ee633daec3003540a2e1 HTTP/1.1 200 1076 - 34.643 ms
::ffff:172.18.0.2 - OPTIONS /api/v1/projects/5e6620d376d8950077a840bc/activities?isCritical=true HTTP/1.1 200 2 - 0.135 ms
::ffff:172.18.0.2 - GET /api/v1/projects/5e6620d376d8950077a840bc/activities?isCritical=true HTTP/1.1 200 2570 - 5.952 ms
::ffff:172.18.0.2 - OPTIONS /api/v1/projects/flat HTTP/1.1 200 2 - 0.183 ms
::ffff:172.18.0.2 - GET /api/v1/projects/flat HTTP/1.1 200 1076 - 35.902 ms
::ffff:172.18.0.2 - OPTIONS /api/v1/projects/5e85f72c3daec3003540a2e5 HTTP/1.1 200 2 - 0.148 ms
::ffff:172.18.0.2 - GET /api/v1/projects/flat HTTP/1.1 200 1076 - 25.523 ms
::ffff:172.18.0.2 - GET /api/v1/projects/5e85f72c3daec3003540a2e5 HTTP/1.1 200 771 - 11.375 ms
::ffff:172.18.0.2 - GET /api/v1/projects/flat HTTP/1.1 200 1076 - 18.931 ms
::ffff:172.18.0.2 - OPTIONS /api/v1/projects/flat HTTP/1.1 200 2 - 0.142 ms
::ffff:172.18.0.2 - GET /api/v1/projects/flat HTTP/1.1 200 1076 - 42.228 ms
::ffff:172.18.0.2 - GET /api/v1/projects/flat HTTP/1.1 200 1076 - 29.605 ms
::ffff:172.18.0.2 - OPTIONS /api/v1/projects/flat HTTP/1.1 200 2 - 0.141 ms
::ffff:172.18.0.2 - GET /api/v1/projects/flat HTTP/1.1 200 1076 - 22.155 ms
::ffff:172.18.0.2 - GET /api/v1/projects/flat HTTP/1.1 200 1076 - 29.134 ms
::ffff:172.18.0.2 - GET /api/v1/projects/flat HTTP/1.1 200 1076 - 19.296 ms
::ffff:172.18.0.2 - OPTIONS /api/v1/projects/flat HTTP/1.1 200 2 - 0.150 ms
::ffff:172.18.0.2 - GET /api/v1/projects/flat HTTP/1.1 200 1076 - 26.010 ms
::ffff:172.18.0.2 - GET /api/v1/projects/flat HTTP/1.1 200 1076 - 23.204 ms
::ffff:172.18.0.2 - GET /api/v1/projects/flat HTTP/1.1 200 1076 - 36.430 ms
::ffff:172.18.0.2 - OPTIONS /api/v1/projects/5e6643c576d8950077a8412d HTTP/1.1 200 2 - 0.159 ms
::ffff:172.18.0.2 - GET /api/v1/projects/5e6643c576d8950077a8412d HTTP/1.1 200 1052 - 10.505 ms
::ffff:172.18.0.2 - OPTIONS /api/v1/projects/flat HTTP/1.1 200 2 - 0.193 ms
::ffff:172.18.0.2 - GET /api/v1/projects/flat HTTP/1.1 200 1076 - 58.424 ms
::ffff:172.18.0.2 - GET /api/v1/projects/flat HTTP/1.1 200 1076 - 28.243 ms
::ffff:172.18.0.2 - OPTIONS /api/v1/projects/flat HTTP/1.1 200 2 - 0.147 ms
::ffff:172.18.0.2 - OPTIONS /api/v1/projects/5e6643c576d8950077a8412d HTTP/1.1 200 2 - 0.106 ms
::ffff:172.18.0.2 - GET /api/v1/projects/5e6643c576d8950077a8412d HTTP/1.1 200 1052 - 14.883 ms
::ffff:172.18.0.2 - GET /api/v1/projects/flat HTTP/1.1 200 1076 - 32.244 ms
::ffff:172.18.0.2 - GET /api/v1/projects/flat HTTP/1.1 200 1076 - 26.266 ms
::ffff:172.18.0.2 - OPTIONS /api/v1/projects/flat HTTP/1.1 200 2 - 9.952 ms
::ffff:172.18.0.2 - OPTIONS /api/v1/projects/5e6620d376d8950077a840bc/activities?isCritical=true HTTP/1.1 200 2 - 0.120 ms
::ffff:172.18.0.2 - GET /api/v1/projects/5e6620d376d8950077a840bc/activities?isCritical=true HTTP/1.1 200 2570 - 17.637 ms
::ffff:172.18.0.2 - GET /api/v1/projects/flat HTTP/1.1 200 1076 - 25.884 ms
::ffff:172.18.0.2 - GET /api/v1/projects/flat HTTP/1.1 200 1076 - 26.424 ms
::ffff:172.18.0.2 - OPTIONS /api/v1/projects/flat HTTP/1.1 200 2 - 0.154 ms
::ffff:172.18.0.2 - OPTIONS /api/v1/projects/5e85f72c3daec3003540a2e5 HTTP/1.1 200 2 - 0.115 ms
::ffff:172.18.0.2 - GET /api/v1/projects/5e85f72c3daec3003540a2e5 HTTP/1.1 200 771 - 11.090 ms
::ffff:172.18.0.2 - GET /api/v1/projects/flat HTTP/1.1 200 1076 - 30.663 ms
::ffff:172.18.0.2 - GET /api/v1/projects/flat HTTP/1.1 200 1076 - 22.048 ms
::ffff:172.18.0.2 - OPTIONS /api/v1/projects/flat HTTP/1.1 200 2 - 0.195 ms
::ffff:172.18.0.2 - GET /api/v1/projects/flat HTTP/1.1 200 1076 - 32.953 ms
::ffff:172.18.0.2 - OPTIONS /api/v1/projects/5e85f72c3daec3003540a2e5 HTTP/1.1 200 2 - 0.255 ms
::ffff:172.18.0.2 - GET /api/v1/projects/flat HTTP/1.1 200 1076 - 29.035 ms
::ffff:172.18.0.2 - GET /api/v1/projects/5e85f72c3daec3003540a2e5 HTTP/1.1 200 771 - 6.288 ms
::ffff:172.18.0.2 - OPTIONS /api/v1/projects/flat HTTP/1.1 200 2 - 0.191 ms
::ffff:172.18.0.2 - GET /api/v1/projects/flat HTTP/1.1 200 1076 - 21.289 ms
::ffff:172.18.0.2 - OPTIONS /api/v1/projects/5e85f72c3daec3003540a2e5 HTTP/1.1 200 2 - 0.130 ms
::ffff:172.18.0.2 - GET /api/v1/projects/flat HTTP/1.1 200 1076 - 25.670 ms
::ffff:172.18.0.2 - GET /api/v1/projects/5e85f72c3daec3003540a2e5 HTTP/1.1 200 771 - 9.903 ms
::ffff:172.18.0.2 - OPTIONS /api/v1/projects/flat HTTP/1.1 200 2 - 0.139 ms
::ffff:172.18.0.2 - GET /api/v1/projects/flat HTTP/1.1 200 1076 - 26.682 ms
::ffff:172.18.0.2 - OPTIONS /api/v1/organisations/mine HTTP/1.1 200 2 - 0.142 ms
::ffff:172.18.0.2 - GET /api/v1/organisations/mine HTTP/1.1 200 243 - 24.433 ms
::ffff:172.18.0.2 - OPTIONS /api/v1/projects/flat HTTP/1.1 200 2 - 0.141 ms
::ffff:172.18.0.2 - OPTIONS /api/v1/projects/5e6620d376d8950077a840bc/activities?isCritical=true HTTP/1.1 200 2 - 0.099 ms
::ffff:172.18.0.2 - GET /api/v1/projects/5e6620d376d8950077a840bc/activities?isCritical=true HTTP/1.1 200 2570 - 13.115 ms
::ffff:172.18.0.2 - GET /api/v1/projects/flat HTTP/1.1 200 673 - 32.656 ms
::ffff:172.18.0.2 - GET /api/v1/projects/flat HTTP/1.1 200 673 - 22.920 ms
::ffff:172.18.0.2 - OPTIONS /api/v1/organisations/mine HTTP/1.1 200 2 - 0.316 ms
::ffff:172.18.0.2 - GET /api/v1/organisations/mine HTTP/1.1 200 241 - 15.370 ms
::ffff:172.18.0.2 - OPTIONS /api/v1/projects/flat HTTP/1.1 200 2 - 0.141 ms
::ffff:172.18.0.2 - OPTIONS /api/v1/projects/5e6620d376d8950077a840bc/activities?isCritical=true HTTP/1.1 200 2 - 0.098 ms
::ffff:172.18.0.2 - GET /api/v1/projects/5e6620d376d8950077a840bc/activities?isCritical=true HTTP/1.1 200 2570 - 14.719 ms
::ffff:172.18.0.2 - GET /api/v1/projects/flat HTTP/1.1 200 1076 - 24.925 ms
::ffff:172.18.0.2 - OPTIONS /api/v1/projects/flat HTTP/1.1 200 2 - 0.137 ms
::ffff:172.18.0.2 - GET /api/v1/projects/flat HTTP/1.1 200 1076 - 73.183 ms
::ffff:172.18.0.2 - OPTIONS /api/v1/projects/flat HTTP/1.1 200 2 - 0.144 ms
::ffff:172.18.0.2 - GET /api/v1/projects/flat HTTP/1.1 200 1076 - 29.327 ms
::ffff:172.18.0.2 - GET /api/v1/projects/flat HTTP/1.1 200 1076 - 21.810 ms
::ffff:172.18.0.2 - GET /api/v1/projects/flat HTTP/1.1 200 1076 - 22.574 ms
::ffff:172.18.0.2 - GET /api/v1/projects/flat HTTP/1.1 200 1076 - 37.480 ms
::ffff:172.18.0.2 - GET /api/v1/projects/flat HTTP/1.1 200 1076 - 29.937 ms
::ffff:172.18.0.2 - OPTIONS /api/v1/projects/flat HTTP/1.1 200 2 - 0.130 ms
::ffff:172.18.0.2 - GET /api/v1/projects/flat HTTP/1.1 200 1076 - 44.203 ms
::ffff:172.18.0.2 - OPTIONS /api/v1/projects/flat HTTP/1.1 200 2 - 0.130 ms
::ffff:172.18.0.2 - OPTIONS /api/v1/projects/5e6620d376d8950077a840bc/activities?isCritical=true HTTP/1.1 200 2 - 0.105 ms
::ffff:172.18.0.2 - GET /api/v1/projects/flat HTTP/1.1 200 1076 - 21.363 ms
::ffff:172.18.0.2 - GET /api/v1/projects/5e6620d376d8950077a840bc/activities?isCritical=true HTTP/1.1 200 2570 - 27.196 ms
::ffff:172.18.0.2 - OPTIONS /api/v1/organisations/mine HTTP/1.1 200 2 - 0.138 ms
::ffff:172.18.0.2 - GET /api/v1/organisations/mine HTTP/1.1 304 - - 12.048 ms
::ffff:172.18.0.2 - OPTIONS /api/v1/projects/flat HTTP/1.1 200 2 - 0.116 ms
::ffff:172.18.0.2 - OPTIONS /api/v1/projects/5e6620d376d8950077a840bc/activities?isCritical=true HTTP/1.1 200 2 - 0.115 ms
::ffff:172.18.0.2 - GET /api/v1/projects/flat HTTP/1.1 200 874 - 20.590 ms
::ffff:172.18.0.2 - GET /api/v1/projects/5e6620d376d8950077a840bc/activities?isCritical=true HTTP/1.1 200 2570 - 11.509 ms
::ffff:172.18.0.2 - GET /api/v1/projects/flat HTTP/1.1 200 874 - 18.529 ms
::ffff:172.18.0.2 - GET /api/v1/projects/flat HTTP/1.1 200 874 - 28.025 ms
::ffff:172.18.0.2 - OPTIONS /api/v1/projects/flat HTTP/1.1 200 2 - 0.141 ms
::ffff:172.18.0.2 - GET /api/v1/projects/flat HTTP/1.1 200 874 - 49.612 ms
::ffff:172.18.0.2 - GET /api/v1/projects/flat HTTP/1.1 200 874 - 25.066 ms
::ffff:172.18.0.2 - OPTIONS /api/v1/projects/5e6620d376d8950077a840bc/activities?isCritical=true HTTP/1.1 200 2 - 0.130 ms
::ffff:172.18.0.2 - GET /api/v1/projects/flat HTTP/1.1 200 874 - 21.069 ms
::ffff:172.18.0.2 - GET /api/v1/projects/5e6620d376d8950077a840bc/activities?isCritical=true HTTP/1.1 200 2570 - 5.749 ms
::ffff:172.18.0.2 - OPTIONS /api/v1/projects/flat HTTP/1.1 200 2 - 0.143 ms
::ffff:172.18.0.2 - GET /api/v1/projects/flat HTTP/1.1 200 874 - 19.928 ms
::ffff:172.18.0.2 - OPTIONS /api/v1/organisations/mine HTTP/1.1 200 2 - 0.141 ms
::ffff:172.18.0.2 - GET /api/v1/organisations/mine HTTP/1.1 304 - - 13.552 ms
::ffff:172.18.0.2 - OPTIONS /api/v1/projects/flat HTTP/1.1 200 2 - 0.134 ms
::ffff:172.18.0.2 - OPTIONS /api/v1/projects/5e6620d376d8950077a840bc/activities?isCritical=true HTTP/1.1 200 2 - 0.115 ms
::ffff:172.18.0.2 - GET /api/v1/projects/5e6620d376d8950077a840bc/activities?isCritical=true HTTP/1.1 200 2570 - 11.651 ms
::ffff:172.18.0.2 - GET /api/v1/projects/flat HTTP/1.1 200 1076 - 34.310 ms
::ffff:172.18.0.2 - GET /api/v1/projects/flat HTTP/1.1 200 1076 - 26.600 ms
::ffff:172.18.0.2 - OPTIONS /api/v1/projects/flat HTTP/1.1 200 2 - 0.131 ms
::ffff:172.18.0.2 - OPTIONS /api/v1/projects/5e8613183daec3003540a2fa HTTP/1.1 200 2 - 0.123 ms
::ffff:172.18.0.2 - GET /api/v1/projects/5e8613183daec3003540a2fa HTTP/1.1 200 772 - 10.782 ms
::ffff:172.18.0.2 - GET /api/v1/projects/flat HTTP/1.1 200 1076 - 28.324 ms
::ffff:172.18.0.2 - GET /api/v1/projects/flat HTTP/1.1 200 1076 - 24.426 ms
::ffff:172.18.0.2 - OPTIONS /api/v1/projects/flat HTTP/1.1 200 2 - 0.139 ms
::ffff:172.18.0.2 - GET /api/v1/projects/flat HTTP/1.1 200 1076 - 20.575 ms
::ffff:172.18.0.2 - GET /api/v1/projects/flat HTTP/1.1 200 1076 - 19.847 ms
::ffff:172.18.0.2 - OPTIONS /api/v1/projects HTTP/1.1 200 2 - 0.138 ms
::ffff:172.18.0.2 - POST /api/v1/projects HTTP/1.1 201 774 - 218.770 ms
::ffff:172.18.0.2 - OPTIONS /api/v1/projects/flat HTTP/1.1 200 2 - 0.132 ms
::ffff:172.18.0.2 - GET /api/v1/projects/flat HTTP/1.1 200 1345 - 25.005 ms
::ffff:172.18.0.2 - OPTIONS /api/v1/projects/flat?organisation=5e8597013daec3003540a25e HTTP/1.1 200 2 - 0.133 ms
::ffff:172.18.0.2 - GET /api/v1/projects/flat?organisation=5e8597013daec3003540a25e HTTP/1.1 304 - - 10.529 ms
::ffff:172.18.0.2 - GET /api/v1/projects/flat HTTP/1.1 200 1345 - 23.276 ms
::ffff:172.18.0.2 - OPTIONS /api/v1/projects/flat HTTP/1.1 200 2 - 0.138 ms
::ffff:172.18.0.2 - OPTIONS /api/v1/projects/5e86bc413daec3003540a326 HTTP/1.1 200 2 - 0.115 ms
::ffff:172.18.0.2 - GET /api/v1/projects/5e86bc413daec3003540a326 HTTP/1.1 200 944 - 23.676 ms
::ffff:172.18.0.2 - GET /api/v1/projects/flat HTTP/1.1 200 1345 - 33.104 ms
::ffff:172.18.0.2 - GET /api/v1/projects/flat HTTP/1.1 200 1345 - 24.675 ms
::ffff:172.18.0.2 - OPTIONS /api/v1/projects/5e86bc413daec3003540a326/assign-user HTTP/1.1 200 2 - 0.145 ms
::ffff:172.18.0.2 - POST /api/v1/projects/5e86bc413daec3003540a326/assign-user HTTP/1.1 200 67 - 282.753 ms
::ffff:172.18.0.2 - OPTIONS /api/v1/organisations/mine HTTP/1.1 200 2 - 0.136 ms
::ffff:172.18.0.2 - GET /api/v1/organisations/mine HTTP/1.1 304 - - 13.921 ms
::ffff:172.18.0.2 - OPTIONS /api/v1/projects/flat HTTP/1.1 200 2 - 0.134 ms
::ffff:172.18.0.2 - OPTIONS /api/v1/projects/5e6620d376d8950077a840bc/activities?isCritical=true HTTP/1.1 200 2 - 0.110 ms
::ffff:172.18.0.2 - GET /api/v1/projects/flat HTTP/1.1 200 1117 - 25.299 ms
::ffff:172.18.0.2 - GET /api/v1/projects/5e6620d376d8950077a840bc/activities?isCritical=true HTTP/1.1 200 2570 - 27.929 ms
::ffff:172.18.0.2 - GET /api/v1/projects/flat HTTP/1.1 200 1117 - 22.113 ms
::ffff:172.18.0.2 - GET /api/v1/projects/flat HTTP/1.1 200 1117 - 25.172 ms
::ffff:172.18.0.2 - GET /api/v1/projects/5e6620d376d8950077a840bc/activities?isCritical=true HTTP/1.1 200 2570 - 16.297 ms
::ffff:172.18.0.2 - OPTIONS /api/v1/projects/flat HTTP/1.1 200 2 - 0.149 ms
::ffff:172.18.0.2 - GET /api/v1/projects/flat HTTP/1.1 200 1117 - 27.722 ms
::ffff:172.18.0.2 - OPTIONS /api/v1/projects/flat HTTP/1.1 200 2 - 0.176 ms
::ffff:172.18.0.2 - GET /api/v1/projects/flat HTTP/1.1 304 - - 12.021 ms
::ffff:172.18.0.2 - OPTIONS /api/v1/projects/flat HTTP/1.1 200 2 - 0.129 ms
::ffff:172.18.0.2 - GET /api/v1/projects/flat HTTP/1.1 200 1117 - 30.212 ms
::ffff:172.18.0.2 - OPTIONS /api/v1/organisations/mine HTTP/1.1 200 2 - 0.138 ms
::ffff:172.18.0.2 - GET /api/v1/organisations/mine HTTP/1.1 304 - - 14.630 ms
::ffff:172.18.0.2 - OPTIONS /api/v1/projects/flat HTTP/1.1 200 2 - 0.130 ms
::ffff:172.18.0.2 - OPTIONS /api/v1/projects/5e6620d376d8950077a840bc/activities?isCritical=true HTTP/1.1 200 2 - 0.117 ms
::ffff:172.18.0.2 - GET /api/v1/projects/5e6620d376d8950077a840bc/activities?isCritical=true HTTP/1.1 200 2570 - 21.139 ms
::ffff:172.18.0.2 - GET /api/v1/projects/flat HTTP/1.1 200 1345 - 31.487 ms
::ffff:172.18.0.2 - GET /api/v1/projects/flat HTTP/1.1 200 1345 - 21.981 ms
::ffff:172.18.0.2 - GET /api/v1/projects/flat HTTP/1.1 200 1345 - 32.868 ms
::ffff:172.18.0.2 - OPTIONS /api/v1/projects/flat HTTP/1.1 200 2 - 0.154 ms
::ffff:172.18.0.2 - GET /api/v1/projects/flat HTTP/1.1 200 1345 - 54.177 ms
::ffff:172.18.0.2 - OPTIONS /api/v1/projects/5e8613183daec3003540a2fa/assign-user HTTP/1.1 200 2 - 0.136 ms
::ffff:172.18.0.2 - OPTIONS /api/v1/projects/flat?organisation=5e8597013daec3003540a25e HTTP/1.1 200 2 - 0.177 ms
::ffff:172.18.0.2 - GET /api/v1/projects/flat?organisation=5e8597013daec3003540a25e HTTP/1.1 304 - - 15.980 ms
::ffff:172.18.0.2 - OPTIONS /api/v1/projects/flat HTTP/1.1 200 2 - 0.144 ms
::ffff:172.18.0.2 - GET /api/v1/projects/flat HTTP/1.1 304 - - 12.998 ms
::ffff:172.18.0.2 - OPTIONS /api/v1/projects/flat HTTP/1.1 200 2 - 0.145 ms
::ffff:172.18.0.2 - GET /api/v1/projects/flat HTTP/1.1 200 1345 - 24.637 ms
::ffff:172.18.0.2 - OPTIONS /api/v1/projects/flat?organisation=5e8597013daec3003540a25e HTTP/1.1 200 2 - 0.141 ms
::ffff:172.18.0.2 - GET /api/v1/projects/flat?organisation=5e8597013daec3003540a25e HTTP/1.1 304 - - 10.048 ms
::ffff:172.18.0.2 - OPTIONS /api/v1/projects/flat HTTP/1.1 200 2 - 0.132 ms
::ffff:172.18.0.2 - GET /api/v1/projects/flat HTTP/1.1 304 - - 12.910 ms
::ffff:172.18.0.2 - OPTIONS /api/v1/organisations/mine HTTP/1.1 200 2 - 0.146 ms
::ffff:172.18.0.2 - GET /api/v1/organisations/mine HTTP/1.1 304 - - 12.835 ms
::ffff:172.18.0.2 - OPTIONS /api/v1/projects/flat HTTP/1.1 200 2 - 0.148 ms
::ffff:172.18.0.2 - OPTIONS /api/v1/projects/5e6620d376d8950077a840bc/activities?isCritical=true HTTP/1.1 200 2 - 0.135 ms
::ffff:172.18.0.2 - GET /api/v1/projects/flat HTTP/1.1 200 1345 - 19.439 ms
::ffff:172.18.0.2 - GET /api/v1/projects/5e6620d376d8950077a840bc/activities?isCritical=true HTTP/1.1 200 2570 - 7.101 ms
::ffff:172.18.0.2 - GET /api/v1/projects/5e6620d376d8950077a840bc/activities?isCritical=true HTTP/1.1 200 2570 - 6.428 ms
::ffff:172.18.0.2 - OPTIONS /api/v1/projects/flat?organisation=5e8597013daec3003540a25e HTTP/1.1 200 2 - 0.131 ms
::ffff:172.18.0.2 - GET /api/v1/projects/flat?organisation=5e8597013daec3003540a25e HTTP/1.1 304 - - 11.486 ms
::ffff:172.18.0.2 - OPTIONS /api/v1/organisations/mine HTTP/1.1 200 2 - 0.129 ms
::ffff:172.18.0.2 - GET /api/v1/organisations/mine HTTP/1.1 304 - - 12.830 ms
::ffff:172.18.0.2 - OPTIONS /api/v1/projects/flat HTTP/1.1 200 2 - 0.151 ms
::ffff:172.18.0.2 - OPTIONS /api/v1/projects/5e6620d376d8950077a840bc/activities?isCritical=true HTTP/1.1 200 2 - 0.125 ms
::ffff:172.18.0.2 - GET /api/v1/projects/5e6620d376d8950077a840bc/activities?isCritical=true HTTP/1.1 200 2570 - 16.190 ms
::ffff:172.18.0.2 - GET /api/v1/projects/flat HTTP/1.1 200 1345 - 41.323 ms
::ffff:172.18.0.2 - OPTIONS /api/v1/projects/5e6620d376d8950077a840bc/activities?isCritical=true HTTP/1.1 200 2 - 0.130 ms
::ffff:172.18.0.2 - GET /api/v1/projects/5e6620d376d8950077a840bc/activities?isCritical=true HTTP/1.1 200 2570 - 20.366 ms
::ffff:172.18.0.2 - OPTIONS /api/v1/projects/5e6620d376d8950077a840bc/activities?isCritical=true HTTP/1.1 200 2 - 0.139 ms
::ffff:172.18.0.2 - GET /api/v1/projects/5e6620d376d8950077a840bc/activities?isCritical=true HTTP/1.1 200 2570 - 6.336 ms
::ffff:172.18.0.2 - OPTIONS /api/v1/organisations/mine HTTP/1.1 200 2 - 0.141 ms
::ffff:172.18.0.2 - GET /api/v1/organisations/mine HTTP/1.1 200 28 - 21.018 ms
::ffff:172.18.0.2 - OPTIONS /api/v1/projects/flat HTTP/1.1 200 2 - 0.146 ms
::ffff:172.18.0.2 - OPTIONS /api/v1/projects/flat HTTP/1.1 200 2 - 0.108 ms
::ffff:172.18.0.2 - GET /api/v1/projects/flat HTTP/1.1 200 28 - 10.650 ms
::ffff:172.18.0.2 - GET /api/v1/projects/flat HTTP/1.1 304 - - 10.387 ms
::ffff:172.18.0.2 - GET /api/v1/projects/flat HTTP/1.1 200 259 - 58.961 ms
::ffff:172.18.0.2 - GET /api/v1/organisations/mine HTTP/1.1 200 28 - 59.088 ms
::ffff:172.18.0.2 - GET /api/v1/organisations/mine HTTP/1.1 200 28 - 26.270 ms
::ffff:172.18.0.2 - GET /api/v1/projects/flat HTTP/1.1 200 259 - 36.902 ms
::ffff:172.18.0.2 - OPTIONS /api/v1/projects/flat HTTP/1.1 200 2 - 0.146 ms
::ffff:172.18.0.2 - GET /api/v1/projects/flat HTTP/1.1 200 1345 - 36.099 ms
::ffff:172.18.0.2 - GET /api/v1/organisations/mine HTTP/1.1 200 28 - 24.286 ms
::ffff:172.18.0.2 - GET /api/v1/projects/flat HTTP/1.1 200 259 - 12.989 ms
::ffff:172.18.0.2 - OPTIONS /api/v1/organisations/mine HTTP/1.1 200 2 - 0.174 ms
::ffff:172.18.0.2 - GET /api/v1/organisations/mine HTTP/1.1 200 243 - 15.854 ms
::ffff:172.18.0.2 - OPTIONS /api/v1/projects/flat HTTP/1.1 200 2 - 0.178 ms
::ffff:172.18.0.2 - OPTIONS /api/v1/projects/5e6620d376d8950077a840bc/activities?isCritical=true HTTP/1.1 200 2 - 0.132 ms
::ffff:172.18.0.2 - GET /api/v1/projects/flat HTTP/1.1 200 673 - 45.810 ms
::ffff:172.18.0.2 - GET /api/v1/projects/5e6620d376d8950077a840bc/activities?isCritical=true HTTP/1.1 200 2570 - 23.573 ms
::ffff:172.18.0.2 - OPTIONS /api/v1/projects/5e6620d376d8950077a840bc/activities HTTP/1.1 200 2 - 0.179 ms
::ffff:172.18.0.2 - OPTIONS /api/v1/projects/5e6620d376d8950077a840bc/gantt HTTP/1.1 200 2 - 0.176 ms
::ffff:172.18.0.2 - GET /api/v1/projects/5e6620d376d8950077a840bc/activities HTTP/1.1 200 83461 - 96.992 ms
::ffff:172.18.0.2 - GET /api/v1/projects/5e6620d376d8950077a840bc/gantt HTTP/1.1 200 27465 - 104.462 ms
::ffff:172.18.0.2 - OPTIONS /api/v1/projects/flat HTTP/1.1 200 2 - 0.180 ms
::ffff:172.18.0.2 - OPTIONS /api/v1/projects/flat HTTP/1.1 200 2 - 0.083 ms
::ffff:172.18.0.2 - GET /api/v1/projects/flat HTTP/1.1 304 - - 23.367 ms
::ffff:172.18.0.2 - GET /api/v1/projects/flat HTTP/1.1 304 - - 24.084 ms
::ffff:172.18.0.2 - OPTIONS /api/v1/projects/5e6620d376d8950077a840bc/activities?isCritical=true HTTP/1.1 200 2 - 1.004 ms
::ffff:172.18.0.2 - GET /api/v1/projects/5e6620d376d8950077a840bc/activities?isCritical=true HTTP/1.1 200 2570 - 6.733 ms
::ffff:172.18.0.2 - GET /api/v1/organisations/mine HTTP/1.1 200 28 - 20.716 ms
::ffff:172.18.0.2 - GET /api/v1/projects/flat HTTP/1.1 200 259 - 12.381 ms
::ffff:172.18.0.2 - OPTIONS /api/v1/projects/flat HTTP/1.1 200 2 - 0.165 ms
::ffff:172.18.0.2 - OPTIONS /api/v1/projects/flat HTTP/1.1 200 2 - 0.081 ms
::ffff:172.18.0.2 - OPTIONS /api/v1/organisations/mine HTTP/1.1 200 2 - 0.158 ms
::ffff:172.18.0.2 - GET /api/v1/organisations/mine HTTP/1.1 304 - - 11.589 ms
::ffff:172.18.0.2 - GET /api/v1/projects/flat HTTP/1.1 304 - - 11.104 ms
::ffff:172.18.0.2 - GET /api/v1/projects/flat HTTP/1.1 304 - - 18.362 ms
::ffff:172.18.0.2 - GET /api/v1/organisations/mine HTTP/1.1 200 236 - 15.381 ms
::ffff:172.18.0.2 - GET /api/v1/projects/flat HTTP/1.1 200 28 - 21.272 ms
::ffff:172.18.0.2 - OPTIONS /api/v1/projects/5e6620d376d8950077a840bc/activities HTTP/1.1 200 2 - 0.138 ms
::ffff:172.18.0.2 - OPTIONS /api/v1/projects/5e6620d376d8950077a840bc/gantt HTTP/1.1 200 2 - 0.081 ms
::ffff:172.18.0.2 - GET /api/v1/projects/5e6620d376d8950077a840bc/activities HTTP/1.1 200 83461 - 106.312 ms
::ffff:172.18.0.2 - GET /api/v1/projects/5e6620d376d8950077a840bc/gantt HTTP/1.1 304 - - 73.998 ms
::ffff:172.18.0.2 - POST /api/v1/organisations/5e85b58e3daec3003540a286/assign-user HTTP/1.1 201 72 - 47.391 ms
::ffff:172.18.0.2 - GET /api/v1/projects/flat HTTP/1.1 200 673 - 17.636 ms
::ffff:172.18.0.2 - GET /api/v1/organisations/mine HTTP/1.1 200 243 - 19.065 ms
::ffff:172.18.0.2 - GET /api/v1/organisations/mine HTTP/1.1 200 236 - 30.465 ms
::ffff:172.18.0.2 - GET /api/v1/projects/flat HTTP/1.1 200 259 - 27.210 ms
::ffff:172.18.0.2 - GET /api/v1/organisations/mine HTTP/1.1 200 236 - 13.842 ms
::ffff:172.18.0.2 - GET /api/v1/projects/flat HTTP/1.1 200 259 - 13.462 ms
::ffff:172.18.0.2 - OPTIONS /api/v1/organisations/mine HTTP/1.1 200 2 - 0.181 ms
::ffff:172.18.0.2 - GET /api/v1/organisations/mine HTTP/1.1 200 241 - 16.412 ms
::ffff:172.18.0.2 - OPTIONS /api/v1/projects/flat HTTP/1.1 200 2 - 0.176 ms
::ffff:172.18.0.2 - OPTIONS /api/v1/projects/5e6620d376d8950077a840bc/activities?isCritical=true HTTP/1.1 200 2 - 0.112 ms
::ffff:172.18.0.2 - GET /api/v1/projects/flat HTTP/1.1 200 1345 - 26.745 ms
::ffff:172.18.0.2 - GET /api/v1/projects/5e6620d376d8950077a840bc/activities?isCritical=true HTTP/1.1 200 2570 - 9.592 ms
::ffff:172.18.0.2 - OPTIONS /api/v1/projects/5e85f72c3daec3003540a2e5 HTTP/1.1 200 2 - 0.179 ms
::ffff:172.18.0.2 - GET /api/v1/projects/5e85f72c3daec3003540a2e5 HTTP/1.1 200 771 - 9.285 ms
::ffff:172.18.0.2 - OPTIONS /api/v1/projects/flat HTTP/1.1 200 2 - 0.204 ms
::ffff:172.18.0.2 - OPTIONS /api/v1/projects/5e85f72c3daec3003540a2e5/activities HTTP/1.1 200 2 - 0.177 ms
::ffff:172.18.0.2 - OPTIONS /api/v1/projects/5e85f72c3daec3003540a2e5/gantt HTTP/1.1 200 2 - 0.089 ms
::ffff:172.18.0.2 - GET /api/v1/projects/flat HTTP/1.1 200 1345 - 42.915 ms
::ffff:172.18.0.2 - GET /api/v1/projects/5e85f72c3daec3003540a2e5/activities HTTP/1.1 200 47 - 25.557 ms
::ffff:172.18.0.2 - GET /api/v1/projects/5e85f72c3daec3003540a2e5/gantt HTTP/1.1 200 28 - 32.823 ms
::ffff:172.18.0.2 - OPTIONS /api/v1/projects/flat HTTP/1.1 200 2 - 0.152 ms
::ffff:172.18.0.2 - GET /api/v1/projects/flat HTTP/1.1 200 1345 - 33.575 ms
::ffff:172.18.0.2 - GET /api/v1/organisations/mine HTTP/1.1 200 236 - 14.046 ms
::ffff:172.18.0.2 - GET /api/v1/projects/flat HTTP/1.1 200 259 - 14.094 ms
::ffff:172.18.0.2 - OPTIONS /api/v1/organisations/mine HTTP/1.1 200 2 - 0.218 ms
::ffff:172.18.0.2 - GET /api/v1/organisations/mine HTTP/1.1 200 28 - 29.676 ms
::ffff:172.18.0.2 - OPTIONS /api/v1/projects/flat HTTP/1.1 200 2 - 0.230 ms
::ffff:172.18.0.2 - OPTIONS /api/v1/projects/flat HTTP/1.1 200 2 - 0.127 ms
::ffff:172.18.0.2 - GET /api/v1/projects/flat HTTP/1.1 200 28 - 26.905 ms
::ffff:172.18.0.2 - GET /api/v1/projects/flat HTTP/1.1 304 - - 23.199 ms
::ffff:172.18.0.2 - GET /api/v1/projects/flat HTTP/1.1 304 - - 25.777 ms
::ffff:172.18.0.2 - GET /api/v1/projects/flat HTTP/1.1 304 - - 35.540 ms
::ffff:172.18.0.2 - GET /api/v1/organisations/mine HTTP/1.1 200 236 - 14.666 ms
::ffff:172.18.0.2 - GET /api/v1/projects/flat HTTP/1.1 200 259 - 17.007 ms
::ffff:172.18.0.2 - GET /api/v1/organisations/mine HTTP/1.1 200 236 - 12.783 ms
::ffff:172.18.0.2 - GET /api/v1/projects/flat HTTP/1.1 200 28 - 12.410 ms
::ffff:172.18.0.2 - GET /api/v1/projects/flat HTTP/1.1 200 28 - 10.192 ms
::ffff:172.18.0.2 - GET /api/v1/organisations/mine HTTP/1.1 200 236 - 39.250 ms
::ffff:172.18.0.2 - GET /api/v1/projects/flat HTTP/1.1 200 259 - 15.059 ms
::ffff:172.18.0.2 - GET /api/v1/projects/5e6643c576d8950077a8412d HTTP/1.1 200 1052 - 8.748 ms
::ffff:172.18.0.2 - OPTIONS /api/v1/organisations/mine HTTP/1.1 200 2 - 0.149 ms
::ffff:172.18.0.2 - GET /api/v1/organisations/mine HTTP/1.1 200 28 - 10.974 ms
::ffff:172.18.0.2 - OPTIONS /api/v1/projects/flat HTTP/1.1 200 2 - 0.143 ms
::ffff:172.18.0.2 - OPTIONS /api/v1/projects/flat HTTP/1.1 200 2 - 0.129 ms
::ffff:172.18.0.2 - GET /api/v1/projects/flat HTTP/1.1 200 28 - 10.715 ms
::ffff:172.18.0.2 - GET /api/v1/projects/flat HTTP/1.1 304 - - 15.473 ms
::ffff:172.18.0.2 - GET /api/v1/projects/flat HTTP/1.1 304 - - 18.838 ms
::ffff:172.18.0.2 - GET /api/v1/projects/flat HTTP/1.1 304 - - 16.281 ms
::ffff:172.18.0.2 - GET /api/v1/projects/5e6643c576d8950077a8412d HTTP/1.1 200 1052 - 16.717 ms
::ffff:172.18.0.2 - GET /api/v1/projects/flat HTTP/1.1 200 259 - 14.020 ms
::ffff:172.18.0.2 - GET /api/v1/projects/flat HTTP/1.1 200 259 - 12.629 ms
::ffff:172.18.0.2 - GET /api/v1/organisations/mine HTTP/1.1 200 236 - 16.735 ms
::ffff:172.18.0.2 - GET /api/v1/projects/flat HTTP/1.1 200 28 - 12.201 ms
::ffff:172.18.0.2 - OPTIONS /api/v1/organisations/mine HTTP/1.1 200 2 - 0.167 ms
::ffff:172.18.0.2 - GET /api/v1/organisations/mine HTTP/1.1 200 28 - 10.702 ms
::ffff:172.18.0.2 - OPTIONS /api/v1/projects/flat HTTP/1.1 200 2 - 0.146 ms
::ffff:172.18.0.2 - OPTIONS /api/v1/projects/flat HTTP/1.1 200 2 - 0.138 ms
::ffff:172.18.0.2 - GET /api/v1/projects/flat HTTP/1.1 200 28 - 19.396 ms
::ffff:172.18.0.2 - GET /api/v1/projects/flat HTTP/1.1 304 - - 15.074 ms
::ffff:172.18.0.2 - GET /api/v1/projects/flat HTTP/1.1 304 - - 13.212 ms
::ffff:172.18.0.2 - GET /api/v1/projects/flat HTTP/1.1 304 - - 12.381 ms
::ffff:172.18.0.2 - GET /api/v1/projects/flat HTTP/1.1 200 28 - 23.302 ms
::ffff:172.18.0.2 - OPTIONS /api/v1/organisations/mine HTTP/1.1 200 2 - 0.262 ms
::ffff:172.18.0.2 - GET /api/v1/organisations/mine HTTP/1.1 200 28 - 17.345 ms
::ffff:172.18.0.2 - OPTIONS /api/v1/projects/flat HTTP/1.1 200 2 - 0.260 ms
::ffff:172.18.0.2 - OPTIONS /api/v1/projects/flat HTTP/1.1 200 2 - 0.218 ms
::ffff:172.18.0.2 - GET /api/v1/projects/flat HTTP/1.1 200 28 - 33.512 ms
::ffff:172.18.0.2 - GET /api/v1/projects/flat HTTP/1.1 304 - - 24.444 ms
::ffff:172.18.0.2 - GET /api/v1/projects/flat HTTP/1.1 304 - - 36.700 ms
::ffff:172.18.0.2 - GET /api/v1/projects/flat HTTP/1.1 304 - - 28.654 ms
::ffff:172.18.0.2 - GET /api/v1/organisations/mine HTTP/1.1 200 236 - 28.695 ms
::ffff:172.18.0.2 - GET /api/v1/projects/flat HTTP/1.1 200 259 - 43.003 ms
::ffff:172.18.0.2 - GET /api/v1/projects/5e6643c576d8950077a8412d HTTP/1.1 200 1052 - 47.562 ms
::ffff:172.18.0.2 - GET /api/v1/projects/5e6643c576d8950077a8412d HTTP/1.1 200 1052 - 13.973 ms
::ffff:172.18.0.2 - GET /api/v1/projects/5e6643c576d8950077a8412d HTTP/1.1 200 1052 - 8.673 ms
::ffff:172.18.0.2 - GET /api/v1/projects/5e6643c576d8950077a8412d HTTP/1.1 200 1052 - 9.224 ms
::ffff:172.18.0.2 - GET /api/v1/projects/flat HTTP/1.1 200 259 - 25.365 ms
::ffff:172.18.0.2 - GET /api/v1/projects/flat HTTP/1.1 200 259 - 16.526 ms
::ffff:172.18.0.2 - GET /api/v1/projects/5e6643c576d8950077a8412d HTTP/1.1 200 1052 - 7.081 ms
::ffff:172.18.0.2 - GET /api/v1/projects/5e6643c576d8950077a8412d HTTP/1.1 200 1052 - 10.030 ms
::ffff:172.18.0.2 - GET /api/v1/projects/5e6643c576d8950077a8412d HTTP/1.1 200 1052 - 10.149 ms
::ffff:172.18.0.2 - GET /api/v1/projects/flat HTTP/1.1 200 259 - 16.014 ms
::ffff:172.18.0.2 - GET /api/v1/projects/flat HTTP/1.1 200 259 - 14.344 ms
::ffff:172.18.0.2 - GET /api/v1/projects/5e6643c576d8950077a8412d HTTP/1.1 200 1052 - 8.952 ms
::ffff:172.18.0.2 - GET /api/v1/projects/5e6643c576d8950077a8412d HTTP/1.1 200 1052 - 8.420 ms
::ffff:172.18.0.2 - GET /api/v1/projects/5e6643c576d8950077a8412d HTTP/1.1 200 1052 - 8.151 ms
::ffff:172.18.0.2 - GET /api/v1/projects/5e6643c576d8950077a8412d HTTP/1.1 200 1052 - 8.075 ms
::ffff:172.18.0.2 - OPTIONS /api/v1/organisations/mine HTTP/1.1 200 2 - 0.729 ms
::ffff:172.18.0.2 - GET /api/v1/organisations/mine HTTP/1.1 200 28 - 11.263 ms
::ffff:172.18.0.2 - OPTIONS /api/v1/projects/flat HTTP/1.1 200 2 - 0.145 ms
::ffff:172.18.0.2 - OPTIONS /api/v1/projects/flat HTTP/1.1 200 2 - 0.188 ms
::ffff:172.18.0.2 - GET /api/v1/projects/flat HTTP/1.1 200 28 - 23.365 ms
::ffff:172.18.0.2 - GET /api/v1/projects/flat HTTP/1.1 304 - - 17.233 ms
::ffff:172.18.0.2 - GET /api/v1/projects/flat HTTP/1.1 304 - - 26.188 ms
::ffff:172.18.0.2 - GET /api/v1/projects/flat HTTP/1.1 304 - - 13.222 ms
::ffff:172.18.0.2 - GET /api/v1/projects/5e6643c576d8950077a8412d HTTP/1.1 200 1052 - 8.287 ms
::ffff:172.18.0.2 - GET /api/v1/projects/5e6643c576d8950077a8412d HTTP/1.1 200 1052 - 7.408 ms
::ffff:172.18.0.2 - GET /api/v1/projects/flat HTTP/1.1 200 259 - 18.849 ms
::ffff:172.18.0.2 - GET /api/v1/projects/flat HTTP/1.1 200 259 - 25.499 ms
::ffff:172.18.0.2 - GET /api/v1/projects/flat HTTP/1.1 200 259 - 24.938 ms
::ffff:172.18.0.2 - GET /api/v1/projects/flat HTTP/1.1 200 259 - 13.573 ms
::ffff:172.18.0.2 - GET /api/v1/organisations/mine HTTP/1.1 200 236 - 16.307 ms
::ffff:172.18.0.2 - GET /api/v1/projects/flat HTTP/1.1 200 259 - 16.320 ms
::ffff:172.18.0.2 - GET /api/v1/projects/5e6643c576d8950077a8412d HTTP/1.1 200 1052 - 12.064 ms
::ffff:172.18.0.2 - OPTIONS /api/v1/organisations/mine HTTP/1.1 200 2 - 0.212 ms
::ffff:172.18.0.2 - GET /api/v1/organisations/mine HTTP/1.1 200 28 - 11.253 ms
::ffff:172.18.0.2 - OPTIONS /api/v1/projects/flat HTTP/1.1 200 2 - 0.139 ms
::ffff:172.18.0.2 - OPTIONS /api/v1/projects/flat HTTP/1.1 200 2 - 0.131 ms
::ffff:172.18.0.2 - GET /api/v1/projects/flat HTTP/1.1 200 28 - 17.072 ms
::ffff:172.18.0.2 - GET /api/v1/projects/flat HTTP/1.1 304 - - 15.941 ms
::ffff:172.18.0.2 - GET /api/v1/projects/flat HTTP/1.1 304 - - 16.141 ms
::ffff:172.18.0.2 - GET /api/v1/projects/flat HTTP/1.1 304 - - 12.645 ms
::ffff:172.18.0.2 - POST /api/v1/projects HTTP/1.1 201 761 - 294.298 ms
::ffff:172.18.0.2 - GET /api/v1/projects/5e6643c576d8950077a8412d HTTP/1.1 200 1255 - 10.420 ms
::ffff:172.18.0.2 - GET /api/v1/projects/flat HTTP/1.1 200 514 - 23.769 ms
::ffff:172.18.0.2 - GET /api/v1/projects/flat HTTP/1.1 200 514 - 30.927 ms
::ffff:172.18.0.2 - GET /api/v1/projects/5e6643c576d8950077a8412d HTTP/1.1 200 1255 - 10.353 ms
::ffff:172.18.0.2 - GET /api/v1/projects/5e6643c576d8950077a8412d HTTP/1.1 200 1255 - 10.293 ms
::ffff:172.18.0.2 - GET /api/v1/projects/flat HTTP/1.1 200 514 - 19.782 ms
::ffff:172.18.0.2 - GET /api/v1/projects/flat HTTP/1.1 200 514 - 27.672 ms
::ffff:172.18.0.2 - GET /api/v1/organisations/mine HTTP/1.1 200 236 - 13.331 ms
::ffff:172.18.0.2 - GET /api/v1/projects/flat HTTP/1.1 200 514 - 15.010 ms
::ffff:172.18.0.2 - GET /api/v1/projects/5e6643c576d8950077a8412d HTTP/1.1 200 1255 - 18.797 ms
::ffff:172.18.0.2 - OPTIONS /api/v1/organisations/mine HTTP/1.1 200 2 - 0.152 ms
::ffff:172.18.0.2 - GET /api/v1/organisations/mine HTTP/1.1 200 28 - 11.553 ms
::ffff:172.18.0.2 - OPTIONS /api/v1/projects/flat HTTP/1.1 200 2 - 0.131 ms
::ffff:172.18.0.2 - OPTIONS /api/v1/projects/flat HTTP/1.1 200 2 - 0.136 ms
::ffff:172.18.0.2 - GET /api/v1/projects/flat HTTP/1.1 200 28 - 10.940 ms
::ffff:172.18.0.2 - GET /api/v1/projects/flat HTTP/1.1 304 - - 12.073 ms
::ffff:172.18.0.2 - GET /api/v1/projects/flat HTTP/1.1 304 - - 18.125 ms
::ffff:172.18.0.2 - GET /api/v1/projects/flat HTTP/1.1 304 - - 11.830 ms
::ffff:172.18.0.2 - GET /api/v1/projects/5e6643c576d8950077a8412d HTTP/1.1 200 1255 - 10.704 ms
::ffff:172.18.0.2 - GET /api/v1/projects/5e6643c576d8950077a8412d HTTP/1.1 200 1255 - 21.801 ms
::ffff:172.18.0.2 - GET /api/v1/projects/flat HTTP/1.1 200 514 - 15.457 ms
::ffff:172.18.0.2 - GET /api/v1/projects/flat HTTP/1.1 200 514 - 14.214 ms
::ffff:172.18.0.2 - OPTIONS /api/v1/organisations/mine HTTP/1.1 200 2 - 0.190 ms
::ffff:172.18.0.2 - GET /api/v1/organisations/mine HTTP/1.1 200 28 - 9.938 ms
::ffff:172.18.0.2 - OPTIONS /api/v1/projects/flat HTTP/1.1 200 2 - 0.144 ms
::ffff:172.18.0.2 - OPTIONS /api/v1/projects/flat HTTP/1.1 200 2 - 0.108 ms
::ffff:172.18.0.2 - GET /api/v1/projects/flat HTTP/1.1 200 28 - 15.066 ms
::ffff:172.18.0.2 - GET /api/v1/projects/flat HTTP/1.1 304 - - 10.260 ms
::ffff:172.18.0.2 - GET /api/v1/projects/5e6643c576d8950077a8412d HTTP/1.1 200 1255 - 11.672 ms
::ffff:172.18.0.2 - GET /api/v1/projects/flat HTTP/1.1 304 - - 15.422 ms
::ffff:172.18.0.2 - GET /api/v1/projects/flat HTTP/1.1 304 - - 16.263 ms
::ffff:172.18.0.2 - OPTIONS /api/v1/organisations/mine HTTP/1.1 200 2 - 0.138 ms
::ffff:172.18.0.2 - GET /api/v1/organisations/mine HTTP/1.1 200 28 - 20.970 ms
::ffff:172.18.0.2 - OPTIONS /api/v1/projects/flat HTTP/1.1 200 2 - 0.142 ms
::ffff:172.18.0.2 - OPTIONS /api/v1/projects/flat HTTP/1.1 200 2 - 0.143 ms
::ffff:172.18.0.2 - GET /api/v1/projects/flat HTTP/1.1 200 28 - 9.757 ms
::ffff:172.18.0.2 - GET /api/v1/projects/flat HTTP/1.1 304 - - 17.363 ms
::ffff:172.18.0.2 - GET /api/v1/projects/flat HTTP/1.1 304 - - 24.403 ms
::ffff:172.18.0.2 - GET /api/v1/projects/flat HTTP/1.1 304 - - 10.829 ms
::ffff:172.18.0.2 - GET /api/v1/projects/5e86d0333daec3003540a360 HTTP/1.1 200 923 - 13.258 ms
::ffff:172.18.0.2 - GET /api/v1/projects/5e6643c576d8950077a8412d HTTP/1.1 200 1255 - 22.154 ms
::ffff:172.18.0.2 - GET /api/v1/projects/flat HTTP/1.1 200 514 - 17.936 ms
::ffff:172.18.0.2 - GET /api/v1/projects/flat HTTP/1.1 200 514 - 16.782 ms
::ffff:172.18.0.2 - GET /api/v1/projects/5e6643c576d8950077a8412d HTTP/1.1 200 1255 - 16.982 ms
::ffff:172.18.0.2 - GET /api/v1/projects/flat HTTP/1.1 200 514 - 18.348 ms
::ffff:172.18.0.2 - GET /api/v1/projects/flat HTTP/1.1 200 514 - 24.705 ms
::ffff:172.18.0.2 - GET /api/v1/projects/5e6643c576d8950077a8412d HTTP/1.1 200 1255 - 9.468 ms
::ffff:172.18.0.2 - GET /api/v1/projects/5e86d0333daec3003540a360 HTTP/1.1 200 923 - 7.276 ms
::ffff:172.18.0.2 - GET /api/v1/projects/5e86d0333daec3003540a360 HTTP/1.1 200 923 - 6.773 ms
::ffff:172.18.0.2 - GET /api/v1/projects/5e6643c576d8950077a8412d HTTP/1.1 200 1255 - 10.838 ms
::ffff:172.18.0.2 - POST /api/v1/organisations HTTP/1.1 400 78 - 20.943 ms
::ffff:172.18.0.2 - OPTIONS /api/v1/organisations/mine HTTP/1.1 200 2 - 0.188 ms
::ffff:172.18.0.2 - GET /api/v1/organisations/mine HTTP/1.1 200 28 - 31.375 ms
::ffff:172.18.0.2 - OPTIONS /api/v1/projects/flat HTTP/1.1 200 2 - 0.191 ms
::ffff:172.18.0.2 - OPTIONS /api/v1/projects/flat HTTP/1.1 200 2 - 0.170 ms
::ffff:172.18.0.2 - GET /api/v1/projects/flat HTTP/1.1 200 28 - 21.687 ms
::ffff:172.18.0.2 - GET /api/v1/projects/flat HTTP/1.1 304 - - 16.244 ms
::ffff:172.18.0.2 - GET /api/v1/projects/flat HTTP/1.1 304 - - 28.423 ms
::ffff:172.18.0.2 - GET /api/v1/projects/flat HTTP/1.1 304 - - 22.178 ms
::ffff:172.18.0.2 - OPTIONS /api/v1/organisations/mine HTTP/1.1 200 2 - 0.195 ms
::ffff:172.18.0.2 - GET /api/v1/organisations/mine HTTP/1.1 200 28 - 12.577 ms
::ffff:172.18.0.2 - OPTIONS /api/v1/projects/flat HTTP/1.1 200 2 - 0.237 ms
::ffff:172.18.0.2 - OPTIONS /api/v1/projects/flat HTTP/1.1 200 2 - 0.251 ms
::ffff:172.18.0.2 - GET /api/v1/projects/flat HTTP/1.1 200 28 - 15.914 ms
::ffff:172.18.0.2 - GET /api/v1/projects/flat HTTP/1.1 304 - - 21.198 ms
::ffff:172.18.0.2 - GET /api/v1/projects/flat HTTP/1.1 304 - - 29.329 ms
::ffff:172.18.0.2 - GET /api/v1/projects/flat HTTP/1.1 304 - - 21.494 ms
::ffff:172.18.0.2 - OPTIONS /api/v1/organisations/mine HTTP/1.1 200 2 - 0.167 ms
::ffff:172.18.0.2 - GET /api/v1/organisations/mine HTTP/1.1 200 28 - 12.411 ms
::ffff:172.18.0.2 - OPTIONS /api/v1/projects/flat HTTP/1.1 200 2 - 0.227 ms
::ffff:172.18.0.2 - OPTIONS /api/v1/projects/flat HTTP/1.1 200 2 - 0.228 ms
::ffff:172.18.0.2 - GET /api/v1/projects/flat HTTP/1.1 200 28 - 13.586 ms
::ffff:172.18.0.2 - GET /api/v1/projects/flat HTTP/1.1 304 - - 19.901 ms
::ffff:172.18.0.2 - GET /api/v1/projects/flat HTTP/1.1 304 - - 20.077 ms
::ffff:172.18.0.2 - GET /api/v1/projects/flat HTTP/1.1 304 - - 19.396 ms
::ffff:172.18.0.2 - OPTIONS /api/v1/projects/flat HTTP/1.1 200 2 - 0.149 ms
::ffff:172.18.0.2 - OPTIONS /api/v1/projects/flat?organisation=5e85b58e3daec3003540a286 HTTP/1.1 200 2 - 0.082 ms
::ffff:172.18.0.2 - GET /api/v1/projects/flat?organisation=5e85b58e3daec3003540a286 HTTP/1.1 200 28 - 14.898 ms
::ffff:172.18.0.2 - GET /api/v1/projects/flat HTTP/1.1 304 - - 20.994 ms
::ffff:172.18.0.2 - OPTIONS /api/v1/organisations/mine HTTP/1.1 200 2 - 0.168 ms
::ffff:172.18.0.2 - GET /api/v1/organisations/mine HTTP/1.1 200 28 - 23.701 ms
::ffff:172.18.0.2 - OPTIONS /api/v1/projects/flat HTTP/1.1 200 2 - 0.187 ms
::ffff:172.18.0.2 - OPTIONS /api/v1/projects/flat HTTP/1.1 200 2 - 0.172 ms
::ffff:172.18.0.2 - GET /api/v1/projects/flat HTTP/1.1 200 28 - 13.979 ms
::ffff:172.18.0.2 - GET /api/v1/projects/flat HTTP/1.1 304 - - 21.435 ms
::ffff:172.18.0.2 - GET /api/v1/projects/flat HTTP/1.1 304 - - 22.595 ms
::ffff:172.18.0.2 - GET /api/v1/projects/flat HTTP/1.1 304 - - 18.270 ms
::ffff:172.18.0.2 - OPTIONS /api/v1/organisations/mine HTTP/1.1 200 2 - 0.162 ms
::ffff:172.18.0.2 - GET /api/v1/organisations/mine HTTP/1.1 200 28 - 11.812 ms
::ffff:172.18.0.2 - OPTIONS /api/v1/projects/flat HTTP/1.1 200 2 - 0.179 ms
::ffff:172.18.0.2 - OPTIONS /api/v1/projects/flat HTTP/1.1 200 2 - 0.136 ms
::ffff:172.18.0.2 - GET /api/v1/projects/flat HTTP/1.1 200 28 - 11.344 ms
::ffff:172.18.0.2 - GET /api/v1/projects/flat HTTP/1.1 304 - - 11.429 ms
::ffff:172.18.0.2 - GET /api/v1/projects/flat HTTP/1.1 304 - - 21.134 ms
::ffff:172.18.0.2 - GET /api/v1/projects/flat HTTP/1.1 304 - - 12.295 ms
::ffff:172.18.0.2 - GET /api/v1/projects/5e6643c576d8950077a8412d HTTP/1.1 200 1255 - 16.820 ms
::ffff:172.18.0.2 - GET /api/v1/projects/flat HTTP/1.1 200 514 - 45.091 ms
::ffff:172.18.0.2 - GET /api/v1/projects/flat HTTP/1.1 200 514 - 36.791 ms
::ffff:172.18.0.2 - GET /api/v1/organisations/mine HTTP/1.1 200 236 - 26.318 ms
::ffff:172.18.0.2 - GET /api/v1/projects/flat HTTP/1.1 200 514 - 36.009 ms
::ffff:172.18.0.2 - GET /api/v1/projects/flat HTTP/1.1 200 699 - 28.390 ms
::ffff:172.18.0.2 - GET /api/v1/organisations/mine HTTP/1.1 200 28 - 26.865 ms
::ffff:172.18.0.2 - GET /api/v1/projects/5e6643c576d8950077a8412d HTTP/1.1 200 1255 - 11.162 ms
::ffff:172.18.0.2 - GET /api/v1/projects/flat HTTP/1.1 200 514 - 29.767 ms
::ffff:172.18.0.2 - GET /api/v1/projects/flat HTTP/1.1 200 514 - 15.476 ms
::ffff:172.18.0.2 - GET /api/v1/organisations/mine HTTP/1.1 200 236 - 24.233 ms
::ffff:172.18.0.2 - GET /api/v1/projects/flat HTTP/1.1 200 514 - 34.190 ms
::ffff:172.18.0.2 - GET /api/v1/organisations/mine HTTP/1.1 200 236 - 15.244 ms
::ffff:172.18.0.2 - GET /api/v1/projects/flat HTTP/1.1 200 28 - 10.763 ms
::ffff:172.18.0.2 - GET /api/v1/projects/flat HTTP/1.1 200 28 - 41.784 ms
::ffff:172.18.0.2 - GET /api/v1/organisations/mine HTTP/1.1 200 236 - 41.404 ms
::ffff:172.18.0.2 - GET /api/v1/organisations/mine HTTP/1.1 200 236 - 13.427 ms
::ffff:172.18.0.2 - GET /api/v1/projects/flat HTTP/1.1 200 28 - 10.077 ms
::ffff:172.18.0.2 - GET /api/v1/organisations/mine HTTP/1.1 200 236 - 51.394 ms
::ffff:172.18.0.2 - GET /api/v1/projects/flat HTTP/1.1 200 514 - 49.699 ms
::ffff:172.18.0.2 - GET /api/v1/organisations/mine HTTP/1.1 200 236 - 26.636 ms
::ffff:172.18.0.2 - GET /api/v1/organisations/mine HTTP/1.1 200 236 - 20.297 ms
::ffff:172.18.0.2 - GET /api/v1/projects/flat HTTP/1.1 200 28 - 22.471 ms
::ffff:172.18.0.2 - GET /api/v1/projects/flat HTTP/1.1 200 28 - 13.250 ms
::ffff:172.18.0.2 - GET /api/v1/organisations/mine HTTP/1.1 200 236 - 19.344 ms
::ffff:172.18.0.2 - OPTIONS /api/v1/projects/flat HTTP/1.1 200 2 - 0.147 ms
::ffff:172.18.0.2 - GET /api/v1/projects/flat HTTP/1.1 200 28 - 13.689 ms
::ffff:172.18.0.2 - GET /api/v1/organisations/mine HTTP/1.1 200 236 - 26.450 ms
::ffff:172.18.0.2 - GET /api/v1/projects/flat HTTP/1.1 200 28 - 13.476 ms
::ffff:172.18.0.2 - GET /api/v1/organisations/mine HTTP/1.1 200 236 - 51.351 ms
::ffff:172.18.0.2 - GET /api/v1/projects/flat HTTP/1.1 200 514 - 50.738 ms
::ffff:172.18.0.2 - GET /api/v1/organisations/mine HTTP/1.1 200 236 - 39.044 ms
::ffff:172.18.0.2 - GET /api/v1/projects/flat HTTP/1.1 200 28 - 43.138 ms
::ffff:172.18.0.2 - GET /api/v1/organisations/mine HTTP/1.1 200 236 - 31.387 ms
::ffff:172.18.0.2 - GET /api/v1/projects/flat HTTP/1.1 200 28 - 30.901 ms
::ffff:172.18.0.2 - OPTIONS /api/v1/organisations/mine HTTP/1.1 200 2 - 0.146 ms
::ffff:172.18.0.2 - GET /api/v1/organisations/mine HTTP/1.1 200 28 - 9.784 ms
::ffff:172.18.0.2 - OPTIONS /api/v1/projects/flat HTTP/1.1 200 2 - 0.195 ms
::ffff:172.18.0.2 - OPTIONS /api/v1/projects/flat HTTP/1.1 200 2 - 0.135 ms
::ffff:172.18.0.2 - GET /api/v1/projects/flat HTTP/1.1 200 28 - 10.222 ms
::ffff:172.18.0.2 - GET /api/v1/projects/flat HTTP/1.1 304 - - 10.192 ms
::ffff:172.18.0.2 - GET /api/v1/projects/flat HTTP/1.1 304 - - 9.843 ms
::ffff:172.18.0.2 - GET /api/v1/projects/flat HTTP/1.1 304 - - 18.242 ms
::ffff:172.18.0.2 - GET /api/v1/projects/flat HTTP/1.1 200 28 - 17.466 ms
::ffff:172.18.0.2 - OPTIONS /api/v1/organisations/mine HTTP/1.1 200 2 - 0.158 ms
::ffff:172.18.0.2 - GET /api/v1/organisations/mine HTTP/1.1 200 28 - 10.836 ms
::ffff:172.18.0.2 - OPTIONS /api/v1/projects/flat HTTP/1.1 200 2 - 0.136 ms
::ffff:172.18.0.2 - OPTIONS /api/v1/projects/flat HTTP/1.1 200 2 - 0.141 ms
::ffff:172.18.0.2 - GET /api/v1/projects/flat HTTP/1.1 200 28 - 11.889 ms
::ffff:172.18.0.2 - GET /api/v1/projects/flat HTTP/1.1 304 - - 14.948 ms
::ffff:172.18.0.2 - GET /api/v1/organisations/mine HTTP/1.1 200 236 - 16.466 ms
::ffff:172.18.0.2 - GET /api/v1/projects/flat HTTP/1.1 304 - - 33.007 ms
::ffff:172.18.0.2 - GET /api/v1/projects/flat HTTP/1.1 304 - - 26.245 ms
::ffff:172.18.0.2 - GET /api/v1/projects/flat HTTP/1.1 200 28 - 13.826 ms
::ffff:172.18.0.2 - OPTIONS /api/v1/organisations/mine HTTP/1.1 200 2 - 0.141 ms
::ffff:172.18.0.2 - GET /api/v1/organisations/mine HTTP/1.1 200 28 - 20.567 ms
::ffff:172.18.0.2 - OPTIONS /api/v1/projects/flat HTTP/1.1 200 2 - 0.141 ms
::ffff:172.18.0.2 - OPTIONS /api/v1/projects/flat HTTP/1.1 200 2 - 0.178 ms
::ffff:172.18.0.2 - GET /api/v1/projects/flat HTTP/1.1 200 28 - 10.593 ms
::ffff:172.18.0.2 - GET /api/v1/projects/flat HTTP/1.1 304 - - 14.503 ms
::ffff:172.18.0.2 - GET /api/v1/projects/flat HTTP/1.1 304 - - 17.749 ms
::ffff:172.18.0.2 - GET /api/v1/projects/flat HTTP/1.1 200 28 - 21.776 ms
::ffff:172.18.0.2 - GET /api/v1/organisations/mine HTTP/1.1 200 236 - 34.143 ms
::ffff:172.18.0.2 - GET /api/v1/projects/flat HTTP/1.1 304 - - 22.393 ms
::ffff:172.18.0.2 - GET /api/v1/projects/flat HTTP/1.1 200 28 - 18.102 ms
::ffff:172.18.0.2 - GET /api/v1/organisations/mine HTTP/1.1 200 236 - 16.415 ms
::ffff:172.18.0.2 - GET /api/v1/projects/flat HTTP/1.1 200 28 - 10.404 ms
::ffff:172.18.0.2 - OPTIONS /api/v1/organisations/mine HTTP/1.1 200 2 - 0.204 ms
::ffff:172.18.0.2 - GET /api/v1/organisations/mine HTTP/1.1 200 28 - 11.814 ms
::ffff:172.18.0.2 - OPTIONS /api/v1/projects/flat HTTP/1.1 200 2 - 0.181 ms
::ffff:172.18.0.2 - OPTIONS /api/v1/projects/flat HTTP/1.1 200 2 - 0.179 ms
::ffff:172.18.0.2 - GET /api/v1/projects/flat HTTP/1.1 200 28 - 12.860 ms
::ffff:172.18.0.2 - GET /api/v1/projects/flat HTTP/1.1 304 - - 17.760 ms
::ffff:172.18.0.2 - GET /api/v1/projects/flat HTTP/1.1 304 - - 15.813 ms
::ffff:172.18.0.2 - GET /api/v1/projects/flat HTTP/1.1 304 - - 13.890 ms
::ffff:172.18.0.2 - GET /api/v1/projects/flat HTTP/1.1 200 28 - 10.819 ms
::ffff:172.18.0.2 - GET /api/v1/organisations/mine HTTP/1.1 200 236 - 13.523 ms
::ffff:172.18.0.2 - GET /api/v1/organisations/mine HTTP/1.1 200 236 - 15.132 ms
::ffff:172.18.0.2 - GET /api/v1/projects/flat HTTP/1.1 200 28 - 11.697 ms
::ffff:172.18.0.2 - GET /api/v1/projects/flat HTTP/1.1 200 28 - 12.953 ms
::ffff:172.18.0.2 - GET /api/v1/organisations/mine HTTP/1.1 200 236 - 13.044 ms
::ffff:172.18.0.2 - GET /api/v1/organisations/mine HTTP/1.1 200 236 - 14.200 ms
::ffff:172.18.0.2 - GET /api/v1/projects/flat HTTP/1.1 200 28 - 11.009 ms
::ffff:172.18.0.2 - OPTIONS /api/v1/organisations/mine HTTP/1.1 200 2 - 0.136 ms
::ffff:172.18.0.2 - GET /api/v1/organisations/mine HTTP/1.1 200 28 - 10.208 ms
::ffff:172.18.0.2 - OPTIONS /api/v1/projects/flat HTTP/1.1 200 2 - 0.148 ms
::ffff:172.18.0.2 - OPTIONS /api/v1/projects/flat HTTP/1.1 200 2 - 0.131 ms
::ffff:172.18.0.2 - GET /api/v1/projects/flat HTTP/1.1 200 28 - 11.182 ms
::ffff:172.18.0.2 - GET /api/v1/projects/flat HTTP/1.1 304 - - 14.584 ms
::ffff:172.18.0.2 - GET /api/v1/projects/flat HTTP/1.1 304 - - 10.593 ms
::ffff:172.18.0.2 - GET /api/v1/projects/flat HTTP/1.1 304 - - 10.700 ms
::ffff:172.18.0.2 - GET /api/v1/organisations/mine HTTP/1.1 200 236 - 56.306 ms
::ffff:172.18.0.2 - GET /api/v1/projects/flat HTTP/1.1 200 28 - 55.119 ms
::ffff:172.18.0.2 - GET /api/v1/organisations/mine HTTP/1.1 200 243 - 17.105 ms
::ffff:172.18.0.2 - GET /api/v1/projects/flat HTTP/1.1 200 895 - 26.006 ms
::ffff:172.18.0.2 - GET /api/v1/projects/5e7dc20c857782003f24d2f3 HTTP/1.1 200 762 - 7.341 ms
::ffff:172.18.0.2 - GET /api/v1/projects/5e7dc20c857782003f24d2f3 HTTP/1.1 200 762 - 6.130 ms
::ffff:172.18.0.2 - GET /api/v1/projects/flat HTTP/1.1 200 895 - 18.437 ms
::ffff:172.18.0.2 - GET /api/v1/projects/flat HTTP/1.1 200 895 - 19.007 ms
::ffff:172.18.0.2 - OPTIONS /api/v1/organisations/mine HTTP/1.1 200 2 - 0.145 ms
::ffff:172.18.0.2 - GET /api/v1/organisations/mine HTTP/1.1 200 243 - 30.456 ms
::ffff:172.18.0.2 - OPTIONS /api/v1/projects/flat HTTP/1.1 200 2 - 0.145 ms
::ffff:172.18.0.2 - OPTIONS /api/v1/projects/5e6620d376d8950077a840bc/activities?isCritical=true HTTP/1.1 200 2 - 0.107 ms
::ffff:172.18.0.2 - GET /api/v1/projects/flat HTTP/1.1 200 699 - 13.754 ms
::ffff:172.18.0.2 - GET /api/v1/projects/5e6620d376d8950077a840bc/activities?isCritical=true HTTP/1.1 200 2570 - 7.233 ms
::ffff:172.18.0.2 - OPTIONS /api/v1/organisations/mine HTTP/1.1 200 2 - 0.144 ms
::ffff:172.18.0.2 - GET /api/v1/organisations/mine HTTP/1.1 200 241 - 13.396 ms
::ffff:172.18.0.2 - OPTIONS /api/v1/projects/flat HTTP/1.1 200 2 - 0.147 ms
::ffff:172.18.0.2 - OPTIONS /api/v1/projects/5e6620d376d8950077a840bc/activities?isCritical=true HTTP/1.1 200 2 - 0.108 ms
::ffff:172.18.0.2 - GET /api/v1/projects/5e6620d376d8950077a840bc/activities?isCritical=true HTTP/1.1 200 2570 - 9.511 ms
::ffff:172.18.0.2 - GET /api/v1/projects/flat HTTP/1.1 200 1371 - 28.461 ms
::ffff:172.18.0.2 - OPTIONS /api/v1/projects/5e8613183daec3003540a2fa/assign-user HTTP/1.1 200 2 - 0.133 ms
::ffff:172.18.0.2 - OPTIONS /api/v1/projects/5e6620d376d8950077a840bc/activities?isCritical=true HTTP/1.1 200 2 - 0.136 ms
::ffff:172.18.0.2 - GET /api/v1/projects/5e6620d376d8950077a840bc/activities?isCritical=true HTTP/1.1 200 2570 - 7.133 ms
::ffff:172.18.0.2 - GET /api/v1/projects/flat HTTP/1.1 200 895 - 47.669 ms
::ffff:172.18.0.2 - GET /api/v1/organisations/mine HTTP/1.1 200 243 - 50.091 ms
::ffff:172.18.0.2 - GET /api/v1/projects/flat HTTP/1.1 200 895 - 14.732 ms
::ffff:172.18.0.2 - GET /api/v1/organisations/mine HTTP/1.1 200 243 - 12.801 ms
::ffff:172.18.0.2 - OPTIONS /api/v1/projects/5e6620d376d8950077a840bc/activities?isCritical=true HTTP/1.1 200 2 - 0.219 ms
::ffff:172.18.0.2 - GET /api/v1/projects/5e6620d376d8950077a840bc/activities?isCritical=true HTTP/1.1 200 2570 - 9.377 ms
::ffff:172.18.0.2 - OPTIONS /api/v1/organisations/mine HTTP/1.1 200 2 - 0.187 ms
::ffff:172.18.0.2 - GET /api/v1/organisations/mine HTTP/1.1 304 - - 14.221 ms
::ffff:172.18.0.2 - OPTIONS /api/v1/projects/flat HTTP/1.1 200 2 - 0.166 ms
::ffff:172.18.0.2 - OPTIONS /api/v1/projects/5e6620d376d8950077a840bc/activities?isCritical=true HTTP/1.1 200 2 - 0.131 ms
::ffff:172.18.0.2 - GET /api/v1/projects/5e6620d376d8950077a840bc/activities?isCritical=true HTTP/1.1 200 2570 - 7.491 ms
::ffff:172.18.0.2 - GET /api/v1/projects/flat HTTP/1.1 200 1371 - 48.987 ms
::ffff:172.18.0.2 - OPTIONS /api/v1/projects/5e6620d376d8950077a840bc/activities?isCritical=true HTTP/1.1 200 2 - 0.128 ms
::ffff:172.18.0.2 - GET /api/v1/projects/5e6620d376d8950077a840bc/activities?isCritical=true HTTP/1.1 200 2570 - 6.258 ms
::ffff:172.18.0.2 - GET /api/v1/organisations/mine HTTP/1.1 200 243 - 13.349 ms
::ffff:172.18.0.2 - GET /api/v1/projects/flat HTTP/1.1 200 895 - 25.306 ms
::ffff:172.18.0.2 - OPTIONS /api/v1/organisations/5e85ee633daec3003540a2e1/assign-user HTTP/1.1 200 2 - 0.134 ms
::ffff:172.18.0.2 - POST /api/v1/organisations/5e85ee633daec3003540a2e1/assign-user HTTP/1.1 400 57 - 50.365 ms
::ffff:172.18.0.2 - OPTIONS /api/v1/projects/5e6620d376d8950077a840bc/activities?isCritical=true HTTP/1.1 200 2 - 0.125 ms
::ffff:172.18.0.2 - GET /api/v1/projects/5e6620d376d8950077a840bc/activities?isCritical=true HTTP/1.1 200 2570 - 6.064 ms
::ffff:172.18.0.2 - OPTIONS /api/v1/organisations/mine HTTP/1.1 200 2 - 0.130 ms
::ffff:172.18.0.2 - GET /api/v1/organisations/mine HTTP/1.1 200 28 - 11.195 ms
::ffff:172.18.0.2 - OPTIONS /api/v1/projects/flat HTTP/1.1 200 2 - 0.127 ms
::ffff:172.18.0.2 - OPTIONS /api/v1/projects/flat HTTP/1.1 200 2 - 0.088 ms
::ffff:172.18.0.2 - GET /api/v1/projects/flat HTTP/1.1 200 28 - 17.362 ms
::ffff:172.18.0.2 - GET /api/v1/projects/flat HTTP/1.1 304 - - 13.483 ms
::ffff:172.18.0.2 - GET /api/v1/projects/flat HTTP/1.1 304 - - 16.635 ms
::ffff:172.18.0.2 - GET /api/v1/projects/flat HTTP/1.1 304 - - 11.388 ms
::ffff:172.18.0.2 - OPTIONS /api/v1/projects/flat HTTP/1.1 200 2 - 0.150 ms
::ffff:172.18.0.2 - OPTIONS /api/v1/projects/flat HTTP/1.1 200 2 - 0.079 ms
::ffff:172.18.0.2 - GET /api/v1/projects/flat HTTP/1.1 304 - - 16.570 ms
::ffff:172.18.0.2 - GET /api/v1/projects/flat HTTP/1.1 304 - - 23.905 ms
::ffff:172.18.0.2 - OPTIONS /api/v1/organisations/mine HTTP/1.1 200 2 - 0.625 ms
::ffff:172.18.0.2 - GET /api/v1/organisations/mine HTTP/1.1 200 28 - 10.009 ms
::ffff:172.18.0.2 - OPTIONS /api/v1/projects/flat HTTP/1.1 200 2 - 0.125 ms
::ffff:172.18.0.2 - OPTIONS /api/v1/projects/flat HTTP/1.1 200 2 - 0.135 ms
::ffff:172.18.0.2 - GET /api/v1/projects/flat HTTP/1.1 200 28 - 15.593 ms
::ffff:172.18.0.2 - GET /api/v1/projects/flat HTTP/1.1 304 - - 15.845 ms
::ffff:172.18.0.2 - GET /api/v1/projects/flat HTTP/1.1 304 - - 17.411 ms
::ffff:172.18.0.2 - GET /api/v1/projects/flat HTTP/1.1 304 - - 10.960 ms
::ffff:172.18.0.2 - OPTIONS /api/v1/projects/5e6620d376d8950077a840bc/activities?isCritical=true HTTP/1.1 200 2 - 0.172 ms
::ffff:172.18.0.2 - GET /api/v1/projects/5e6620d376d8950077a840bc/activities?isCritical=true HTTP/1.1 200 2570 - 6.255 ms
::ffff:172.18.0.2 - OPTIONS /api/v1/projects/5e6620d376d8950077a840bc/activities?isCritical=true HTTP/1.1 200 2 - 0.287 ms
::ffff:172.18.0.2 - GET /api/v1/projects/5e6620d376d8950077a840bc/activities?isCritical=true HTTP/1.1 200 2570 - 10.919 ms
::ffff:172.18.0.2 - OPTIONS /api/v1/projects/5e6620d376d8950077a840bc HTTP/1.1 200 2 - 0.245 ms
::ffff:172.18.0.2 - GET /api/v1/projects/5e6620d376d8950077a840bc HTTP/1.1 200 2890 - 18.685 ms
::ffff:172.18.0.2 - OPTIONS /api/v1/projects/flat HTTP/1.1 200 2 - 0.365 ms
::ffff:172.18.0.2 - OPTIONS /api/v1/projects/5e6620d376d8950077a840bc HTTP/1.1 200 2 - 0.268 ms
::ffff:172.18.0.2 - GET /api/v1/projects/5e6620d376d8950077a840bc HTTP/1.1 200 2890 - 60.079 ms
::ffff:172.18.0.2 - GET /api/v1/projects/flat HTTP/1.1 200 1371 - 130.127 ms
::ffff:172.18.0.2 - OPTIONS /api/v1/organisations/mine HTTP/1.1 200 2 - 0.213 ms
::ffff:172.18.0.2 - GET /api/v1/organisations/mine HTTP/1.1 200 28 - 14.227 ms
::ffff:172.18.0.2 - OPTIONS /api/v1/projects/flat HTTP/1.1 200 2 - 0.281 ms
::ffff:172.18.0.2 - OPTIONS /api/v1/projects/flat HTTP/1.1 200 2 - 0.243 ms
::ffff:172.18.0.2 - GET /api/v1/projects/flat HTTP/1.1 200 28 - 24.503 ms
::ffff:172.18.0.2 - GET /api/v1/projects/flat HTTP/1.1 304 - - 20.618 ms
::ffff:172.18.0.2 - GET /api/v1/projects/flat HTTP/1.1 304 - - 21.571 ms
::ffff:172.18.0.2 - GET /api/v1/projects/flat HTTP/1.1 304 - - 15.547 ms
::ffff:172.18.0.2 - OPTIONS /api/v1/projects/flat HTTP/1.1 200 2 - 0.188 ms
::ffff:172.18.0.2 - OPTIONS /api/v1/projects/flat HTTP/1.1 200 2 - 0.151 ms
::ffff:172.18.0.2 - GET /api/v1/projects/flat HTTP/1.1 304 - - 11.847 ms
::ffff:172.18.0.2 - GET /api/v1/projects/flat HTTP/1.1 304 - - 19.629 ms
::ffff:172.18.0.2 - OPTIONS /api/v1/organisations/mine HTTP/1.1 200 2 - 0.143 ms
::ffff:172.18.0.2 - GET /api/v1/organisations/mine HTTP/1.1 304 - - 12.165 ms
::ffff:172.18.0.2 - OPTIONS /api/v1/projects/flat HTTP/1.1 200 2 - 0.115 ms
::ffff:172.18.0.2 - OPTIONS /api/v1/projects/5e6620d376d8950077a840bc/activities?isCritical=true HTTP/1.1 200 2 - 0.126 ms
::ffff:172.18.0.2 - GET /api/v1/projects/flat HTTP/1.1 200 1371 - 29.556 ms
::ffff:172.18.0.2 - GET /api/v1/projects/5e6620d376d8950077a840bc/activities?isCritical=true HTTP/1.1 200 2570 - 5.887 ms
::ffff:172.18.0.2 - GET /api/v1/projects/flat HTTP/1.1 200 1371 - 22.406 ms
::ffff:172.18.0.2 - OPTIONS /api/v1/projects/flat HTTP/1.1 200 2 - 0.130 ms
::ffff:172.18.0.2 - GET /api/v1/projects/flat HTTP/1.1 200 1371 - 19.954 ms
::ffff:172.18.0.2 - OPTIONS /api/v1/projects/5e86bc413daec3003540a326 HTTP/1.1 200 2 - 0.173 ms
::ffff:172.18.0.2 - GET /api/v1/projects/flat HTTP/1.1 200 1371 - 35.204 ms
::ffff:172.18.0.2 - GET /api/v1/projects/5e86bc413daec3003540a326 HTTP/1.1 200 944 - 10.903 ms
::ffff:172.18.0.2 - OPTIONS /api/v1/organisations/mine HTTP/1.1 200 2 - 0.175 ms
::ffff:172.18.0.2 - GET /api/v1/organisations/mine HTTP/1.1 200 28 - 12.274 ms
::ffff:172.18.0.2 - OPTIONS /api/v1/projects/flat HTTP/1.1 200 2 - 0.197 ms
::ffff:172.18.0.2 - OPTIONS /api/v1/projects/flat HTTP/1.1 200 2 - 0.167 ms
::ffff:172.18.0.2 - GET /api/v1/projects/flat HTTP/1.1 200 28 - 15.164 ms
::ffff:172.18.0.2 - GET /api/v1/projects/flat HTTP/1.1 304 - - 18.220 ms
::ffff:172.18.0.2 - GET /api/v1/projects/flat HTTP/1.1 200 28 - 19.231 ms
::ffff:172.18.0.2 - GET /api/v1/projects/flat HTTP/1.1 304 - - 20.275 ms
::ffff:172.18.0.2 - OPTIONS /api/v1/projects/flat HTTP/1.1 200 2 - 0.189 ms
::ffff:172.18.0.2 - GET /api/v1/projects/flat HTTP/1.1 200 1371 - 29.698 ms
::ffff:172.18.0.2 - OPTIONS /api/v1/projects/flat HTTP/1.1 200 2 - 0.124 ms
::ffff:172.18.0.2 - OPTIONS /api/v1/projects/flat HTTP/1.1 200 2 - 0.093 ms
::ffff:172.18.0.2 - GET /api/v1/projects/flat HTTP/1.1 304 - - 10.846 ms
::ffff:172.18.0.2 - GET /api/v1/projects/flat HTTP/1.1 304 - - 12.557 ms
::ffff:172.18.0.2 - OPTIONS /api/v1/projects/flat HTTP/1.1 200 2 - 0.124 ms
::ffff:172.18.0.2 - OPTIONS /api/v1/projects/5e6620d376d8950077a840bc/activities?isCritical=true HTTP/1.1 200 2 - 0.102 ms
::ffff:172.18.0.2 - GET /api/v1/projects/5e6620d376d8950077a840bc/activities?isCritical=true HTTP/1.1 200 2570 - 8.108 ms
::ffff:172.18.0.2 - GET /api/v1/projects/flat HTTP/1.1 200 1371 - 27.162 ms
::ffff:172.18.0.2 - GET /api/v1/projects/flat HTTP/1.1 200 1371 - 24.277 ms
::ffff:172.18.0.2 - OPTIONS /api/v1/projects HTTP/1.1 200 2 - 0.148 ms
::ffff:172.18.0.2 - OPTIONS /api/v1/projects/5e6620d376d8950077a840bc HTTP/1.1 200 2 - 0.135 ms
::ffff:172.18.0.2 - GET /api/v1/projects/flat HTTP/1.1 200 1371 - 19.745 ms
::ffff:172.18.0.2 - GET /api/v1/projects/5e6620d376d8950077a840bc HTTP/1.1 200 2890 - 11.445 ms
::ffff:172.18.0.2 - POST /api/v1/projects HTTP/1.1 201 910 - 207.587 ms
::ffff:172.18.0.2 - OPTIONS /api/v1/projects/flat HTTP/1.1 200 2 - 0.135 ms
::ffff:172.18.0.2 - GET /api/v1/projects/flat HTTP/1.1 200 228 - 15.561 ms
::ffff:172.18.0.2 - OPTIONS /api/v1/projects/flat HTTP/1.1 200 2 - 0.166 ms
::ffff:172.18.0.2 - GET /api/v1/projects/flat HTTP/1.1 200 1371 - 97.888 ms
::ffff:172.18.0.2 - OPTIONS /api/v1/projects/flat HTTP/1.1 200 2 - 0.126 ms
::ffff:172.18.0.2 - GET /api/v1/projects/flat HTTP/1.1 200 1371 - 30.044 ms
::ffff:172.18.0.2 - GET /api/v1/projects/flat HTTP/1.1 200 1371 - 16.965 ms
::ffff:172.18.0.2 - OPTIONS /api/v1/projects/5e6643c576d8950077a8412d HTTP/1.1 200 2 - 0.125 ms
::ffff:172.18.0.2 - GET /api/v1/projects/5e6643c576d8950077a8412d HTTP/1.1 200 1255 - 10.804 ms
::ffff:172.18.0.2 - OPTIONS /api/v1/projects/flat HTTP/1.1 200 2 - 0.159 ms
::ffff:172.18.0.2 - GET /api/v1/projects/flat HTTP/1.1 200 1371 - 19.008 ms
::ffff:172.18.0.2 - OPTIONS /api/v1/projects/flat HTTP/1.1 200 2 - 0.131 ms
::ffff:172.18.0.2 - GET /api/v1/projects/flat HTTP/1.1 200 228 - 12.527 ms
::ffff:172.18.0.2 - OPTIONS /api/v1/projects/5e86f0903daec3003540a3a1/activities?isCritical=true HTTP/1.1 200 2 - 0.113 ms
::ffff:172.18.0.2 - GET /api/v1/projects/5e86f0903daec3003540a3a1/activities?isCritical=true HTTP/1.1 200 47 - 4.228 ms
::ffff:172.18.0.2 - OPTIONS /api/v1/organisations/mine HTTP/1.1 200 2 - 0.127 ms
::ffff:172.18.0.2 - GET /api/v1/organisations/mine HTTP/1.1 200 28 - 17.885 ms
::ffff:172.18.0.2 - OPTIONS /api/v1/projects/flat HTTP/1.1 200 2 - 0.124 ms
::ffff:172.18.0.2 - OPTIONS /api/v1/projects/flat HTTP/1.1 200 2 - 0.130 ms
::ffff:172.18.0.2 - GET /api/v1/projects/flat HTTP/1.1 200 228 - 12.234 ms
::ffff:172.18.0.2 - GET /api/v1/projects/flat HTTP/1.1 200 228 - 17.733 ms
::ffff:172.18.0.2 - OPTIONS /api/v1/projects/5e86f0903daec3003540a3a1/activities?isCritical=true HTTP/1.1 200 2 - 0.118 ms
::ffff:172.18.0.2 - GET /api/v1/projects/5e86f0903daec3003540a3a1/activities?isCritical=true HTTP/1.1 200 47 - 3.582 ms
::ffff:172.18.0.2 - GET /api/v1/projects/flat HTTP/1.1 200 228 - 17.398 ms
::ffff:172.18.0.2 - GET /api/v1/projects/flat HTTP/1.1 200 228 - 15.181 ms
::ffff:172.18.0.2 - GET /api/v1/projects/5e86f0903daec3003540a3a1/activities?isCritical=true HTTP/1.1 304 - - 4.567 ms
::ffff:172.18.0.2 - OPTIONS /api/v1/projects/flat HTTP/1.1 200 2 - 0.144 ms
::ffff:172.18.0.2 - OPTIONS /api/v1/projects/flat HTTP/1.1 200 2 - 0.132 ms
::ffff:172.18.0.2 - GET /api/v1/projects/flat HTTP/1.1 200 228 - 19.584 ms
::ffff:172.18.0.2 - GET /api/v1/projects/flat HTTP/1.1 200 228 - 14.734 ms
::ffff:172.18.0.2 - OPTIONS /api/v1/projects/5e86f0903daec3003540a3a1/activities?isCritical=true HTTP/1.1 200 2 - 0.118 ms
::ffff:172.18.0.2 - GET /api/v1/projects/5e86f0903daec3003540a3a1/activities?isCritical=true HTTP/1.1 304 - - 3.529 ms
::ffff:172.18.0.2 - OPTIONS /api/v1/projects/flat HTTP/1.1 200 2 - 0.125 ms
::ffff:172.18.0.2 - GET /api/v1/projects/flat HTTP/1.1 200 1371 - 70.823 ms
::ffff:172.18.0.2 - OPTIONS /api/v1/organisations/mine HTTP/1.1 200 2 - 0.132 ms
::ffff:172.18.0.2 - GET /api/v1/organisations/mine HTTP/1.1 200 243 - 17.338 ms
::ffff:172.18.0.2 - OPTIONS /api/v1/projects/flat HTTP/1.1 200 2 - 0.145 ms
::ffff:172.18.0.2 - OPTIONS /api/v1/projects/5e6620d376d8950077a840bc/activities?isCritical=true HTTP/1.1 200 2 - 0.109 ms
::ffff:172.18.0.2 - GET /api/v1/projects/flat HTTP/1.1 200 699 - 23.915 ms
::ffff:172.18.0.2 - GET /api/v1/projects/5e6620d376d8950077a840bc/activities?isCritical=true HTTP/1.1 200 2570 - 6.303 ms
::ffff:172.18.0.2 - GET /api/v1/projects/flat HTTP/1.1 200 699 - 22.313 ms
::ffff:172.18.0.2 - OPTIONS /api/v1/projects/flat HTTP/1.1 200 2 - 0.125 ms
::ffff:172.18.0.2 - GET /api/v1/projects/flat HTTP/1.1 200 699 - 48.761 ms
::ffff:172.18.0.2 - OPTIONS /api/v1/projects/flat HTTP/1.1 200 2 - 0.130 ms
::ffff:172.18.0.2 - GET /api/v1/projects/flat HTTP/1.1 200 699 - 40.529 ms
::ffff:172.18.0.2 - GET /api/v1/projects/flat HTTP/1.1 200 28 - 24.805 ms
::ffff:172.18.0.2 - GET /api/v1/organisations/mine HTTP/1.1 200 236 - 15.827 ms
::ffff:172.18.0.2 - GET /api/v1/projects/flat HTTP/1.1 200 28 - 24.748 ms
::ffff:172.18.0.2 - GET /api/v1/organisations/mine HTTP/1.1 200 236 - 14.000 ms
::ffff:172.18.0.2 - GET /api/v1/projects/flat HTTP/1.1 200 28 - 15.950 ms
::ffff:172.18.0.2 - GET /api/v1/organisations/mine HTTP/1.1 200 236 - 22.655 ms
::ffff:172.18.0.2 - GET /api/v1/organisations/mine HTTP/1.1 200 236 - 16.955 ms
::ffff:172.18.0.2 - GET /api/v1/projects/flat HTTP/1.1 200 514 - 23.519 ms
::ffff:172.18.0.2 - GET /api/v1/projects/flat HTTP/1.1 200 28 - 24.032 ms
::ffff:172.18.0.2 - GET /api/v1/organisations/mine HTTP/1.1 200 236 - 16.387 ms
::ffff:172.18.0.2 - GET /api/v1/projects/flat HTTP/1.1 200 28 - 29.546 ms
::ffff:172.18.0.2 - GET /api/v1/organisations/mine HTTP/1.1 200 236 - 41.512 ms
::ffff:172.18.0.2 - OPTIONS /api/v1/projects/flat HTTP/1.1 200 2 - 0.129 ms
::ffff:172.18.0.2 - OPTIONS /api/v1/projects/flat HTTP/1.1 200 2 - 0.161 ms
::ffff:172.18.0.2 - GET /api/v1/projects/flat HTTP/1.1 304 - - 31.005 ms
::ffff:172.18.0.2 - GET /api/v1/projects/flat HTTP/1.1 304 - - 15.728 ms
::ffff:172.18.0.2 - OPTIONS /api/v1/organisations/mine HTTP/1.1 200 2 - 0.138 ms
::ffff:172.18.0.2 - GET /api/v1/organisations/mine HTTP/1.1 200 253 - 16.940 ms
::ffff:172.18.0.2 - OPTIONS /api/v1/projects/flat HTTP/1.1 200 2 - 0.163 ms
::ffff:172.18.0.2 - OPTIONS /api/v1/projects/flat?organisation=5e8597013daec3003540a25e HTTP/1.1 200 2 - 0.188 ms
::ffff:172.18.0.2 - GET /api/v1/projects/flat HTTP/1.1 304 - - 25.344 ms
::ffff:172.18.0.2 - GET /api/v1/projects/flat?organisation=5e8597013daec3003540a25e HTTP/1.1 200 28 - 26.237 ms
::ffff:172.18.0.2 - OPTIONS /api/v1/projects/flat HTTP/1.1 200 2 - 0.160 ms
::ffff:172.18.0.2 - GET /api/v1/projects/flat HTTP/1.1 304 - - 20.015 ms
::ffff:172.18.0.2 - OPTIONS /api/v1/projects/flat HTTP/1.1 200 2 - 0.495 ms
::ffff:172.18.0.2 - OPTIONS /api/v1/projects/flat HTTP/1.1 200 2 - 0.204 ms
::ffff:172.18.0.2 - GET /api/v1/projects/flat HTTP/1.1 200 228 - 119.967 ms
::ffff:172.18.0.2 - GET /api/v1/projects/flat HTTP/1.1 200 228 - 119.668 ms
::ffff:172.18.0.2 - OPTIONS /api/v1/projects/5e86f0903daec3003540a3a1/activities?isCritical=true HTTP/1.1 200 2 - 0.204 ms
::ffff:172.18.0.2 - GET /api/v1/projects/5e86f0903daec3003540a3a1/activities?isCritical=true HTTP/1.1 200 47 - 17.907 ms
::ffff:172.18.0.2 - OPTIONS /api/v1/projects/flat?organisation=5e8597013daec3003540a25e HTTP/1.1 200 2 - 0.168 ms
::ffff:172.18.0.2 - GET /api/v1/projects/flat?organisation=5e8597013daec3003540a25e HTTP/1.1 304 - - 18.258 ms
::ffff:172.18.0.2 - OPTIONS /api/v1/projects/flat HTTP/1.1 200 2 - 0.172 ms
::ffff:172.18.0.2 - GET /api/v1/projects/flat HTTP/1.1 304 - - 13.229 ms
::ffff:172.18.0.2 - GET /api/v1/organisations/mine HTTP/1.1 200 243 - 35.478 ms
::ffff:172.18.0.2 - GET /api/v1/projects/flat HTTP/1.1 200 895 - 26.371 ms
::ffff:172.18.0.2 - GET /api/v1/projects/5e6620d376d8950077a840bc HTTP/1.1 200 2890 - 16.903 ms
::ffff:172.18.0.2 - GET /api/v1/projects/flat HTTP/1.1 200 895 - 25.477 ms
::ffff:172.18.0.2 - GET /api/v1/projects/flat HTTP/1.1 200 895 - 18.429 ms
::ffff:172.18.0.2 - GET /api/v1/projects/flat HTTP/1.1 200 28 - 216.528 ms
::ffff:172.18.0.2 - GET /api/v1/organisations/mine HTTP/1.1 200 236 - 17.018 ms
::ffff:172.18.0.2 - OPTIONS /api/v1/projects HTTP/1.1 200 2 - 0.177 ms
::ffff:172.18.0.2 - POST /api/v1/projects HTTP/1.1 201 861 - 258.834 ms
::ffff:172.18.0.2 - OPTIONS /api/v1/projects/flat HTTP/1.1 200 2 - 0.139 ms
::ffff:172.18.0.2 - GET /api/v1/projects/flat HTTP/1.1 200 219 - 14.624 ms
::ffff:172.18.0.2 - GET /api/v1/projects/flat HTTP/1.1 200 28 - 11.426 ms
::ffff:172.18.0.2 - GET /api/v1/organisations/mine HTTP/1.1 200 236 - 17.462 ms
::ffff:172.18.0.2 - OPTIONS /api/v1/projects/flat HTTP/1.1 200 2 - 0.136 ms
::ffff:172.18.0.2 - GET /api/v1/projects/flat HTTP/1.1 200 219 - 24.059 ms
::ffff:172.18.0.2 - GET /api/v1/organisations/mine HTTP/1.1 200 236 - 16.650 ms
::ffff:172.18.0.2 - GET /api/v1/projects/flat HTTP/1.1 200 514 - 22.586 ms
::ffff:172.18.0.2 - OPTIONS /api/v1/projects/flat HTTP/1.1 200 2 - 0.148 ms
::ffff:172.18.0.2 - OPTIONS /api/v1/projects/flat?organisation=5e8597013daec3003540a25e HTTP/1.1 200 2 - 0.087 ms
::ffff:172.18.0.2 - GET /api/v1/projects/flat HTTP/1.1 200 219 - 35.317 ms
::ffff:172.18.0.2 - GET /api/v1/projects/flat?organisation=5e8597013daec3003540a25e HTTP/1.1 200 219 - 25.694 ms
::ffff:172.18.0.2 - OPTIONS /api/v1/projects/5e870c893daec3003540a3ad/activities?isCritical=true HTTP/1.1 200 2 - 0.131 ms
::ffff:172.18.0.2 - GET /api/v1/projects/5e870c893daec3003540a3ad/activities?isCritical=true HTTP/1.1 200 47 - 4.199 ms
::ffff:172.18.0.2 - OPTIONS /api/v1/projects/5e870c893daec3003540a3ad HTTP/1.1 200 2 - 0.162 ms
::ffff:172.18.0.2 - GET /api/v1/projects/5e870c893daec3003540a3ad HTTP/1.1 200 893 - 8.032 ms
::ffff:172.18.0.2 - OPTIONS /api/v1/projects/flat HTTP/1.1 200 2 - 2.499 ms
::ffff:172.18.0.2 - GET /api/v1/projects/flat HTTP/1.1 200 219 - 49.376 ms
::ffff:172.18.0.2 - GET /api/v1/projects/5e870c893daec3003540a3ad HTTP/1.1 200 893 - 29.290 ms
::ffff:172.18.0.2 - GET /api/v1/projects/flat HTTP/1.1 200 219 - 45.752 ms
::ffff:172.18.0.2 - OPTIONS /api/v1/projects/5e870c893daec3003540a3ad/activities HTTP/1.1 200 2 - 0.171 ms
::ffff:172.18.0.2 - OPTIONS /api/v1/projects/5e870c893daec3003540a3ad/gantt HTTP/1.1 200 2 - 0.171 ms
::ffff:172.18.0.2 - GET /api/v1/projects/flat HTTP/1.1 200 219 - 28.821 ms
::ffff:172.18.0.2 - GET /api/v1/projects/5e870c893daec3003540a3ad/activities HTTP/1.1 200 47 - 13.765 ms
::ffff:172.18.0.2 - GET /api/v1/projects/5e870c893daec3003540a3ad/gantt HTTP/1.1 200 28 - 4.732 ms
::ffff:172.18.0.2 - GET /api/v1/projects/flat HTTP/1.1 200 219 - 24.691 ms
::ffff:172.18.0.2 - GET /api/v1/projects/5e870c893daec3003540a3ad/activities HTTP/1.1 304 - - 23.589 ms
::ffff:172.18.0.2 - GET /api/v1/projects/5e870c893daec3003540a3ad/gantt HTTP/1.1 304 - - 27.691 ms
::ffff:172.18.0.2 - GET /api/v1/projects/flat HTTP/1.1 200 219 - 62.908 ms
::ffff:172.18.0.2 - OPTIONS /api/v1/projects/flat HTTP/1.1 200 2 - 0.412 ms
::ffff:172.18.0.2 - GET /api/v1/projects/flat HTTP/1.1 200 219 - 38.249 ms
::ffff:172.18.0.2 - GET /api/v1/projects/flat HTTP/1.1 200 219 - 37.431 ms
::ffff:172.18.0.2 - GET /api/v1/projects/flat HTTP/1.1 200 219 - 64.536 ms
::ffff:172.18.0.2 - GET /api/v1/projects/flat HTTP/1.1 200 219 - 119.679 ms
::ffff:172.18.0.2 - OPTIONS /api/v1/projects/flat HTTP/1.1 200 2 - 0.292 ms
::ffff:172.18.0.2 - GET /api/v1/projects/flat HTTP/1.1 200 219 - 51.466 ms
::ffff:172.18.0.2 - OPTIONS /api/v1/projects/5e870c893daec3003540a3ad/activities?isCritical=true HTTP/1.1 200 2 - 0.400 ms
::ffff:172.18.0.2 - GET /api/v1/projects/5e870c893daec3003540a3ad/activities?isCritical=true HTTP/1.1 304 - - 11.228 ms
::ffff:172.18.0.2 - GET /api/v1/projects/flat HTTP/1.1 200 219 - 64.158 ms
::ffff:172.18.0.2 - OPTIONS /api/v1/projects/flat HTTP/1.1 200 2 - 6.034 ms
::ffff:172.18.0.2 - GET /api/v1/projects/flat HTTP/1.1 200 219 - 52.771 ms
::ffff:172.18.0.2 - OPTIONS /api/v1/projects/5e870c893daec3003540a3ad/activities?isCritical=true HTTP/1.1 200 2 - 0.132 ms
::ffff:172.18.0.2 - GET /api/v1/projects/flat HTTP/1.1 200 219 - 28.479 ms
::ffff:172.18.0.2 - GET /api/v1/projects/5e870c893daec3003540a3ad/activities?isCritical=true HTTP/1.1 304 - - 24.939 ms
::ffff:172.18.0.2 - OPTIONS /api/v1/projects/flat HTTP/1.1 200 2 - 0.270 ms
::ffff:172.18.0.2 - GET /api/v1/projects/flat HTTP/1.1 200 219 - 37.630 ms
::ffff:172.18.0.2 - OPTIONS /api/v1/projects/flat HTTP/1.1 200 2 - 0.270 ms
::ffff:172.18.0.2 - OPTIONS /api/v1/projects/5e870c893daec3003540a3ad/activities?isCritical=true HTTP/1.1 200 2 - 0.231 ms
::ffff:172.18.0.2 - GET /api/v1/projects/5e870c893daec3003540a3ad/activities?isCritical=true HTTP/1.1 304 - - 30.686 ms
::ffff:172.18.0.2 - GET /api/v1/projects/flat HTTP/1.1 200 219 - 71.529 ms
::ffff:172.18.0.2 - GET /api/v1/projects/flat HTTP/1.1 200 28 - 23.929 ms
::ffff:172.18.0.2 - GET /api/v1/organisations/mine HTTP/1.1 200 236 - 23.435 ms
::ffff:172.18.0.2 - GET /api/v1/organisations/mine HTTP/1.1 200 243 - 50.030 ms
::ffff:172.18.0.2 - GET /api/v1/projects/flat HTTP/1.1 200 895 - 69.505 ms
::ffff:172.18.0.2 - GET /api/v1/projects/flat HTTP/1.1 200 895 - 21.810 ms
::ffff:172.18.0.2 - GET /api/v1/organisations/mine HTTP/1.1 200 243 - 28.414 ms
::ffff:172.18.0.2 - GET /api/v1/projects/5e6620d376d8950077a840bc HTTP/1.1 200 2890 - 14.209 ms
::ffff:172.18.0.2 - GET /api/v1/projects/flat HTTP/1.1 200 895 - 36.077 ms
::ffff:172.18.0.2 - GET /api/v1/projects/flat HTTP/1.1 200 895 - 29.882 ms
::ffff:172.18.0.2 - GET /api/v1/projects/flat HTTP/1.1 200 895 - 19.566 ms
::ffff:172.18.0.2 - GET /api/v1/organisations/mine HTTP/1.1 200 243 - 15.248 ms
::ffff:172.18.0.2 - GET /api/v1/projects/5e6620d376d8950077a840bc HTTP/1.1 200 2890 - 11.838 ms
::ffff:172.18.0.2 - GET /api/v1/projects/5e6620d376d8950077a840bc HTTP/1.1 200 2890 - 17.887 ms
::ffff:172.18.0.2 - GET /api/v1/projects/5e6620d376d8950077a840bc HTTP/1.1 200 2890 - 11.163 ms
::ffff:172.18.0.2 - OPTIONS /api/v1/projects/flat HTTP/1.1 200 2 - 0.177 ms
::ffff:172.18.0.2 - OPTIONS /api/v1/projects/5e6620d376d8950077a840bc HTTP/1.1 200 2 - 0.171 ms
::ffff:172.18.0.2 - GET /api/v1/projects/5e6620d376d8950077a840bc HTTP/1.1 200 2890 - 19.135 ms
::ffff:172.18.0.2 - GET /api/v1/projects/flat HTTP/1.1 200 895 - 57.378 ms
::ffff:172.18.0.2 - OPTIONS /api/v1/projects/flat HTTP/1.1 200 2 - 0.134 ms
::ffff:172.18.0.2 - OPTIONS /api/v1/projects/flat HTTP/1.1 200 2 - 0.085 ms
::ffff:172.18.0.2 - GET /api/v1/projects/flat HTTP/1.1 304 - - 11.805 ms
::ffff:172.18.0.2 - GET /api/v1/projects/flat HTTP/1.1 304 - - 10.665 ms
::ffff:172.18.0.2 - OPTIONS /api/v1/organisations/mine HTTP/1.1 200 2 - 0.132 ms
::ffff:172.18.0.2 - GET /api/v1/organisations/mine HTTP/1.1 304 - - 10.837 ms
::ffff:172.18.0.2 - OPTIONS /api/v1/projects/flat HTTP/1.1 200 2 - 0.126 ms
::ffff:172.18.0.2 - OPTIONS /api/v1/projects/flat HTTP/1.1 200 2 - 0.096 ms
::ffff:172.18.0.2 - GET /api/v1/projects/flat HTTP/1.1 200 699 - 19.859 ms
::ffff:172.18.0.2 - GET /api/v1/projects/flat HTTP/1.1 200 699 - 19.352 ms
::ffff:172.18.0.2 - OPTIONS /api/v1/projects/5e6620d376d8950077a840bc/activities?isCritical=true HTTP/1.1 200 2 - 0.139 ms
::ffff:172.18.0.2 - GET /api/v1/projects/5e6620d376d8950077a840bc/activities?isCritical=true HTTP/1.1 200 2570 - 7.570 ms
::ffff:172.18.0.2 - OPTIONS /api/v1/projects/5e6620d376d8950077a840bc HTTP/1.1 200 2 - 0.344 ms
::ffff:172.18.0.2 - GET /api/v1/projects/5e6620d376d8950077a840bc HTTP/1.1 200 2890 - 16.721 ms
::ffff:172.18.0.2 - OPTIONS /api/v1/projects/flat HTTP/1.1 200 2 - 0.189 ms
::ffff:172.18.0.2 - GET /api/v1/projects/flat HTTP/1.1 200 699 - 19.298 ms
::ffff:172.18.0.2 - GET /api/v1/projects/flat HTTP/1.1 200 895 - 30.727 ms
::ffff:172.18.0.2 - GET /api/v1/organisations/mine HTTP/1.1 200 243 - 32.811 ms
::ffff:172.18.0.2 - GET /api/v1/organisations/mine HTTP/1.1 200 236 - 13.533 ms
::ffff:172.18.0.2 - GET /api/v1/projects/flat HTTP/1.1 200 28 - 11.488 ms
::ffff:172.18.0.2 - GET /api/v1/organisations/mine HTTP/1.1 200 243 - 13.455 ms
::ffff:172.18.0.2 - GET /api/v1/projects/flat HTTP/1.1 200 895 - 14.332 ms
::ffff:172.18.0.2 - GET /api/v1/projects/flat HTTP/1.1 200 28 - 42.188 ms
::ffff:172.18.0.2 - GET /api/v1/organisations/mine HTTP/1.1 200 236 - 43.024 ms
::ffff:172.18.0.2 - POST /api/v1/organisations HTTP/1.1 400 78 - 21.181 ms
::ffff:172.18.0.2 - GET /api/v1/projects/flat HTTP/1.1 200 1371 - 16.848 ms
::ffff:172.18.0.2 - GET /api/v1/organisations/mine HTTP/1.1 200 241 - 17.201 ms
::ffff:172.18.0.2 - OPTIONS /api/v1/projects/flat HTTP/1.1 200 2 - 0.196 ms
::ffff:172.18.0.2 - OPTIONS /api/v1/projects/5e6620d376d8950077a840bc/activities?isCritical=true HTTP/1.1 200 2 - 0.148 ms
::ffff:172.18.0.2 - GET /api/v1/projects/5e6620d376d8950077a840bc/activities?isCritical=true HTTP/1.1 200 2570 - 34.288 ms
::ffff:172.18.0.2 - GET /api/v1/projects/flat HTTP/1.1 200 699 - 46.214 ms
::ffff:172.18.0.2 - GET /api/v1/organisations/mine HTTP/1.1 200 241 - 27.875 ms
::ffff:172.18.0.2 - GET /api/v1/projects/flat HTTP/1.1 200 1371 - 18.308 ms
::ffff:172.18.0.2 - GET /api/v1/organisations/mine HTTP/1.1 200 236 - 26.471 ms
::ffff:172.18.0.2 - GET /api/v1/projects/flat HTTP/1.1 200 514 - 18.405 ms
::ffff:172.18.0.2 - OPTIONS /api/v1/projects/flat HTTP/1.1 200 2 - 0.136 ms
::ffff:172.18.0.2 - GET /api/v1/projects/flat HTTP/1.1 200 699 - 19.733 ms
::ffff:172.18.0.2 - OPTIONS /api/v1/projects/5e6620d376d8950077a840bc HTTP/1.1 200 2 - 0.247 ms
::ffff:172.18.0.2 - GET /api/v1/projects/flat HTTP/1.1 200 699 - 19.313 ms
::ffff:172.18.0.2 - GET /api/v1/projects/5e6620d376d8950077a840bc HTTP/1.1 200 2890 - 15.672 ms
::ffff:172.18.0.2 - GET /api/v1/projects/flat HTTP/1.1 200 699 - 18.517 ms
::ffff:172.18.0.2 - POST /api/v1/organisations/5e85b58e3daec3003540a286/assign-user HTTP/1.1 201 72 - 65.619 ms
::ffff:172.18.0.2 - GET /api/v1/projects/flat HTTP/1.1 200 1371 - 17.223 ms
::ffff:172.18.0.2 - GET /api/v1/organisations/mine HTTP/1.1 200 450 - 14.252 ms
::ffff:172.18.0.2 - GET /api/v1/projects/flat HTTP/1.1 200 1371 - 47.140 ms
::ffff:172.18.0.2 - GET /api/v1/organisations/mine HTTP/1.1 200 450 - 45.389 ms
::ffff:172.18.0.2 - GET /api/v1/projects/5e85f72c3daec3003540a2e5 HTTP/1.1 200 771 - 6.658 ms
::ffff:172.18.0.2 - GET /api/v1/projects/flat HTTP/1.1 200 1371 - 16.185 ms
::ffff:172.18.0.2 - GET /api/v1/projects/flat HTTP/1.1 200 1371 - 16.500 ms
::ffff:172.18.0.2 - GET /api/v1/projects/flat HTTP/1.1 200 514 - 14.871 ms
::ffff:172.18.0.2 - GET /api/v1/organisations/mine HTTP/1.1 200 236 - 14.847 ms
::ffff:172.18.0.2 - GET /api/v1/organisations/mine HTTP/1.1 200 450 - 18.847 ms
::ffff:172.18.0.2 - GET /api/v1/projects/flat HTTP/1.1 200 1371 - 31.705 ms
::ffff:172.18.0.2 - POST /api/v1/organisations/5e85b58e3daec3003540a286/assign-user HTTP/1.1 201 72 - 66.779 ms
::ffff:172.18.0.2 - GET /api/v1/projects/flat HTTP/1.1 200 699 - 24.991 ms
::ffff:172.18.0.2 - GET /api/v1/organisations/mine HTTP/1.1 200 236 - 33.074 ms
::ffff:172.18.0.2 - OPTIONS /api/v1/projects/5e86f0903daec3003540a3a1/activities?isCritical=true HTTP/1.1 200 2 - 0.278 ms
::ffff:172.18.0.2 - GET /api/v1/projects/5e86f0903daec3003540a3a1/activities?isCritical=true HTTP/1.1 200 47 - 5.512 ms
::ffff:172.18.0.2 - GET /api/v1/projects/flat HTTP/1.1 200 1371 - 30.420 ms
::ffff:172.18.0.2 - GET /api/v1/organisations/mine HTTP/1.1 200 241 - 15.981 ms
::ffff:172.18.0.2 - OPTIONS /api/v1/projects/5e86f0903daec3003540a3a1/activities?isCritical=true HTTP/1.1 200 2 - 0.182 ms
::ffff:172.18.0.2 - GET /api/v1/projects/5e86f0903daec3003540a3a1/activities?isCritical=true HTTP/1.1 200 47 - 3.770 ms
::ffff:172.18.0.2 - OPTIONS /api/v1/organisations/mine HTTP/1.1 200 2 - 0.165 ms
::ffff:172.18.0.2 - GET /api/v1/organisations/mine HTTP/1.1 200 28 - 13.398 ms
::ffff:172.18.0.2 - OPTIONS /api/v1/projects/flat HTTP/1.1 200 2 - 0.169 ms
::ffff:172.18.0.2 - OPTIONS /api/v1/projects/flat HTTP/1.1 200 2 - 0.088 ms
::ffff:172.18.0.2 - GET /api/v1/projects/flat HTTP/1.1 200 228 - 20.105 ms
::ffff:172.18.0.2 - GET /api/v1/projects/flat HTTP/1.1 200 228 - 26.691 ms
::ffff:172.18.0.2 - GET /api/v1/projects/flat HTTP/1.1 200 228 - 29.364 ms
::ffff:172.18.0.2 - OPTIONS /api/v1/projects/5e86f0903daec3003540a3a1/activities?isCritical=true HTTP/1.1 200 2 - 0.181 ms
::ffff:172.18.0.2 - GET /api/v1/projects/5e86f0903daec3003540a3a1/activities?isCritical=true HTTP/1.1 200 47 - 21.324 ms
::ffff:172.18.0.2 - GET /api/v1/organisations/mine HTTP/1.1 200 236 - 14.927 ms
::ffff:172.18.0.2 - GET /api/v1/projects/flat HTTP/1.1 200 514 - 14.320 ms
::ffff:172.18.0.2 - OPTIONS /api/v1/projects/flat HTTP/1.1 200 2 - 0.193 ms
::ffff:172.18.0.2 - OPTIONS /api/v1/projects/flat HTTP/1.1 200 2 - 0.137 ms
::ffff:172.18.0.2 - GET /api/v1/projects/flat HTTP/1.1 200 699 - 15.448 ms
::ffff:172.18.0.2 - GET /api/v1/projects/flat HTTP/1.1 200 699 - 17.964 ms
::ffff:172.18.0.2 - OPTIONS /api/v1/projects/5e6620d376d8950077a840bc/activities?isCritical=true HTTP/1.1 200 2 - 0.591 ms
::ffff:172.18.0.2 - GET /api/v1/projects/5e6620d376d8950077a840bc/activities?isCritical=true HTTP/1.1 200 2570 - 8.307 ms
::ffff:172.18.0.2 - OPTIONS /api/v1/projects/flat HTTP/1.1 200 2 - 0.138 ms
::ffff:172.18.0.2 - OPTIONS /api/v1/projects/5e6620d376d8950077a840bc/activities?isCritical=true HTTP/1.1 200 2 - 0.114 ms
::ffff:172.18.0.2 - GET /api/v1/projects/5e6620d376d8950077a840bc/activities?isCritical=true HTTP/1.1 200 2570 - 37.298 ms
::ffff:172.18.0.2 - GET /api/v1/projects/flat HTTP/1.1 200 699 - 55.400 ms
::ffff:172.18.0.2 - GET /api/v1/projects/flat HTTP/1.1 200 699 - 20.583 ms
::ffff:172.18.0.2 - GET /api/v1/projects/5e6620d376d8950077a840bc/activities?isCritical=true HTTP/1.1 200 2570 - 21.420 ms
::ffff:172.18.0.2 - GET /api/v1/projects/flat HTTP/1.1 200 699 - 56.607 ms
::ffff:172.18.0.2 - OPTIONS /api/v1/projects/flat HTTP/1.1 200 2 - 0.138 ms
::ffff:172.18.0.2 - GET /api/v1/projects/flat HTTP/1.1 200 699 - 19.041 ms
::ffff:172.18.0.2 - OPTIONS /api/v1/projects/5e6620d376d8950077a840bc/activities?isCritical=true HTTP/1.1 200 2 - 0.329 ms
::ffff:172.18.0.2 - GET /api/v1/projects/5e6620d376d8950077a840bc/activities?isCritical=true HTTP/1.1 200 2570 - 8.315 ms
::ffff:172.18.0.2 - OPTIONS /api/v1/projects/flat HTTP/1.1 200 2 - 0.141 ms
::ffff:172.18.0.2 - OPTIONS /api/v1/projects/5e6620d376d8950077a840bc/activities?isCritical=true HTTP/1.1 200 2 - 0.148 ms
::ffff:172.18.0.2 - GET /api/v1/projects/flat HTTP/1.1 200 699 - 24.966 ms
::ffff:172.18.0.2 - GET /api/v1/projects/5e6620d376d8950077a840bc/activities?isCritical=true HTTP/1.1 200 2570 - 20.487 ms
::ffff:172.18.0.2 - GET /api/v1/organisations/mine HTTP/1.1 200 243 - 31.060 ms
::ffff:172.18.0.2 - GET /api/v1/projects/flat HTTP/1.1 200 895 - 26.866 ms
::ffff:172.18.0.2 - OPTIONS /api/v1/organisations/mine HTTP/1.1 200 2 - 0.176 ms
::ffff:172.18.0.2 - GET /api/v1/organisations/mine HTTP/1.1 304 - - 16.251 ms
::ffff:172.18.0.2 - OPTIONS /api/v1/projects/flat HTTP/1.1 200 2 - 0.171 ms
::ffff:172.18.0.2 - OPTIONS /api/v1/projects/flat?organisation=5e8597013daec3003540a25e HTTP/1.1 200 2 - 0.124 ms
::ffff:172.18.0.2 - GET /api/v1/projects/flat HTTP/1.1 200 219 - 17.635 ms
::ffff:172.18.0.2 - GET /api/v1/projects/flat?organisation=5e8597013daec3003540a25e HTTP/1.1 200 219 - 15.830 ms
::ffff:172.18.0.2 - OPTIONS /api/v1/projects/5e870c893daec3003540a3ad/activities?isCritical=true HTTP/1.1 200 2 - 0.147 ms
::ffff:172.18.0.2 - GET /api/v1/projects/5e870c893daec3003540a3ad/activities?isCritical=true HTTP/1.1 200 47 - 6.823 ms
::ffff:172.18.0.2 - GET /api/v1/projects/flat HTTP/1.1 200 514 - 26.177 ms
::ffff:172.18.0.2 - GET /api/v1/organisations/mine HTTP/1.1 200 236 - 35.497 ms
::ffff:172.18.0.2 - GET /api/v1/projects/flat HTTP/1.1 200 514 - 25.111 ms
::ffff:172.18.0.2 - GET /api/v1/projects/flat HTTP/1.1 200 514 - 39.933 ms
::ffff:172.18.0.2 - GET /api/v1/projects/flat HTTP/1.1 200 514 - 32.505 ms
::ffff:172.18.0.2 - GET /api/v1/organisations/mine HTTP/1.1 200 236 - 17.979 ms
::ffff:172.18.0.2 - GET /api/v1/organisations/mine HTTP/1.1 200 236 - 25.497 ms
::ffff:172.18.0.2 - GET /api/v1/projects/flat HTTP/1.1 200 514 - 18.328 ms
::ffff:172.18.0.2 - GET /api/v1/organisations/mine HTTP/1.1 200 236 - 48.352 ms
::ffff:172.18.0.2 - GET /api/v1/projects/flat HTTP/1.1 200 28 - 17.352 ms
::ffff:172.18.0.2 - GET /api/v1/organisations/mine HTTP/1.1 200 243 - 35.856 ms
::ffff:172.18.0.2 - GET /api/v1/projects/flat HTTP/1.1 200 895 - 25.616 ms
::ffff:172.18.0.2 - GET /api/v1/projects/flat HTTP/1.1 200 895 - 28.098 ms
::ffff:172.18.0.2 - GET /api/v1/organisations/mine HTTP/1.1 200 243 - 39.019 ms
::ffff:172.18.0.2 - GET /api/v1/organisations/mine HTTP/1.1 200 243 - 29.511 ms
::ffff:172.18.0.2 - GET /api/v1/projects/flat HTTP/1.1 200 895 - 21.864 ms
::ffff:172.18.0.2 - GET /api/v1/organisations/mine HTTP/1.1 200 243 - 32.468 ms
::ffff:172.18.0.2 - GET /api/v1/projects/flat HTTP/1.1 200 895 - 57.075 ms
::ffff:172.18.0.2 - GET /api/v1/organisations/mine HTTP/1.1 200 236 - 47.892 ms
::ffff:172.18.0.2 - GET /api/v1/projects/flat HTTP/1.1 200 514 - 46.240 ms
::ffff:172.18.0.2 - OPTIONS /api/v1/projects/flat HTTP/1.1 200 2 - 0.131 ms
::ffff:172.18.0.2 - GET /api/v1/projects/flat HTTP/1.1 200 699 - 29.759 ms
::ffff:172.18.0.2 - GET /api/v1/projects/flat HTTP/1.1 200 699 - 14.210 ms
::ffff:172.18.0.2 - GET /api/v1/projects/flat HTTP/1.1 200 514 - 223.420 ms
::ffff:172.18.0.2 - GET /api/v1/organisations/mine HTTP/1.1 200 236 - 241.627 ms
::ffff:172.18.0.2 - GET /api/v1/projects/flat HTTP/1.1 200 514 - 17.031 ms
::ffff:172.18.0.2 - GET /api/v1/projects/5e6643c576d8950077a8412d HTTP/1.1 200 1255 - 15.831 ms
::ffff:172.18.0.2 - GET /api/v1/projects/5e6643c576d8950077a8412d HTTP/1.1 200 1255 - 10.484 ms
::ffff:172.18.0.2 - GET /api/v1/projects/5e6643c576d8950077a8412d HTTP/1.1 200 1255 - 12.735 ms
::ffff:172.18.0.2 - GET /api/v1/projects/flat HTTP/1.1 200 514 - 18.153 ms
::ffff:172.18.0.2 - GET /api/v1/projects/flat HTTP/1.1 200 514 - 42.753 ms
::ffff:172.18.0.2 - GET /api/v1/organisations/mine HTTP/1.1 200 243 - 17.364 ms
::ffff:172.18.0.2 - GET /api/v1/projects/flat HTTP/1.1 200 895 - 25.107 ms
::ffff:172.18.0.2 - GET /api/v1/projects/5e6620d376d8950077a840bc HTTP/1.1 200 2890 - 12.227 ms
::ffff:172.18.0.2 - GET /api/v1/projects/flat HTTP/1.1 200 895 - 29.560 ms
::ffff:172.18.0.2 - GET /api/v1/organisations/mine HTTP/1.1 200 243 - 40.203 ms
::ffff:172.18.0.2 - GET /api/v1/projects/5e6620d376d8950077a840bc HTTP/1.1 200 2890 - 12.277 ms
::ffff:172.18.0.2 - OPTIONS /api/v1/projects/flat HTTP/1.1 200 2 - 0.250 ms
::ffff:172.18.0.2 - OPTIONS /api/v1/projects/flat HTTP/1.1 200 2 - 0.221 ms
::ffff:172.18.0.2 - GET /api/v1/projects/flat HTTP/1.1 200 699 - 45.360 ms
::ffff:172.18.0.2 - GET /api/v1/projects/flat HTTP/1.1 200 699 - 28.603 ms
::ffff:172.18.0.2 - OPTIONS /api/v1/projects/5e6620d376d8950077a840bc/activities?isCritical=true HTTP/1.1 200 2 - 0.231 ms
::ffff:172.18.0.2 - GET /api/v1/projects/5e6620d376d8950077a840bc/activities?isCritical=true HTTP/1.1 200 2570 - 10.754 ms
::ffff:172.18.0.2 - OPTIONS /api/v1/projects/5e6620d376d8950077a840bc HTTP/1.1 200 2 - 0.270 ms
::ffff:172.18.0.2 - GET /api/v1/projects/5e6620d376d8950077a840bc HTTP/1.1 200 2890 - 19.469 ms
::ffff:172.18.0.2 - OPTIONS /api/v1/annotations?entity=5e6620d376d8950077a840bc&properties.imgName=AAA%20(614).JPG HTTP/1.1 200 2 - 0.131 ms
::ffff:172.18.0.2 - GET /api/v1/annotations?entity=5e6620d376d8950077a840bc&properties.imgName=AAA%20(614).JPG HTTP/1.1 200 2 - 3.426 ms
::ffff:172.18.0.2 - OPTIONS /api/v1/organisations/mine HTTP/1.1 200 2 - 0.125 ms
::ffff:172.18.0.2 - GET /api/v1/organisations/mine HTTP/1.1 200 28 - 20.060 ms
::ffff:172.18.0.2 - OPTIONS /api/v1/projects/flat HTTP/1.1 200 2 - 0.121 ms
::ffff:172.18.0.2 - OPTIONS /api/v1/projects/5e6620d376d8950077a840bc/activities?isCritical=true HTTP/1.1 200 2 - 0.108 ms
::ffff:172.18.0.2 - GET /api/v1/projects/5e6620d376d8950077a840bc/activities?isCritical=true HTTP/1.1 200 2570 - 18.672 ms
::ffff:172.18.0.2 - GET /api/v1/projects/flat HTTP/1.1 200 699 - 27.182 ms
::ffff:172.18.0.2 - OPTIONS /api/v1/projects/flat HTTP/1.1 200 2 - 0.240 ms
::ffff:172.18.0.2 - GET /api/v1/projects/flat HTTP/1.1 200 699 - 61.486 ms
::ffff:172.18.0.2 - OPTIONS /api/v1/projects/flat HTTP/1.1 200 2 - 0.138 ms
::ffff:172.18.0.2 - GET /api/v1/projects/flat HTTP/1.1 200 699 - 22.302 ms
::ffff:172.18.0.2 - OPTIONS /api/v1/projects/flat HTTP/1.1 200 2 - 0.143 ms
::ffff:172.18.0.2 - OPTIONS /api/v1/projects/5e6620d376d8950077a840bc HTTP/1.1 200 2 - 0.171 ms
::ffff:172.18.0.2 - GET /api/v1/projects/flat HTTP/1.1 200 699 - 23.519 ms
::ffff:172.18.0.2 - GET /api/v1/projects/5e6620d376d8950077a840bc HTTP/1.1 200 2890 - 13.983 ms
::ffff:172.18.0.2 - OPTIONS /api/v1/projects/flat HTTP/1.1 200 2 - 0.296 ms
::ffff:172.18.0.2 - GET /api/v1/projects/flat HTTP/1.1 200 699 - 55.476 ms
::ffff:172.18.0.2 - OPTIONS /api/v1/projects/flat HTTP/1.1 200 2 - 0.158 ms
::ffff:172.18.0.2 - GET /api/v1/projects/flat HTTP/1.1 200 699 - 30.197 ms
::ffff:172.18.0.2 - OPTIONS /api/v1/projects/flat HTTP/1.1 200 2 - 0.132 ms
::ffff:172.18.0.2 - GET /api/v1/projects/flat HTTP/1.1 200 699 - 26.473 ms
::ffff:172.18.0.2 - OPTIONS /api/v1/projects/flat HTTP/1.1 200 2 - 0.218 ms
::ffff:172.18.0.2 - OPTIONS /api/v1/projects/5e6620d376d8950077a840bc/activities HTTP/1.1 200 2 - 0.152 ms
::ffff:172.18.0.2 - GET /api/v1/projects/flat HTTP/1.1 200 699 - 21.591 ms
::ffff:172.18.0.2 - OPTIONS /api/v1/projects/5e6620d376d8950077a840bc/gantt HTTP/1.1 200 2 - 0.141 ms
::ffff:172.18.0.2 - GET /api/v1/projects/5e6620d376d8950077a840bc/activities HTTP/1.1 200 83461 - 111.513 ms
::ffff:172.18.0.2 - GET /api/v1/projects/5e6620d376d8950077a840bc/gantt HTTP/1.1 200 27465 - 114.717 ms
::ffff:172.18.0.2 - OPTIONS /api/v1/projects/flat HTTP/1.1 200 2 - 0.192 ms
::ffff:172.18.0.2 - OPTIONS /api/v1/projects/5e6620d376d8950077a840bc HTTP/1.1 200 2 - 0.143 ms
::ffff:172.18.0.2 - GET /api/v1/projects/5e6620d376d8950077a840bc HTTP/1.1 200 2890 - 28.486 ms
::ffff:172.18.0.2 - GET /api/v1/projects/flat HTTP/1.1 200 699 - 66.822 ms
::ffff:172.18.0.2 - OPTIONS /api/v1/annotations?entity=5e6620d376d8950077a840bc&properties.imgName=AAA%20(595).JPG HTTP/1.1 200 2 - 0.159 ms
::ffff:172.18.0.2 - OPTIONS /api/v1/annotations?entity=5e6620d376d8950077a840bc&properties.imgName=AAA%20(595).JPG HTTP/1.1 200 2 - 0.100 ms
::ffff:172.18.0.2 - OPTIONS /api/v1/annotations?entity=5e6620d376d8950077a840bc&properties.imgName=AAA%20(595).JPG HTTP/1.1 200 2 - 0.086 ms
::ffff:172.18.0.2 - GET /api/v1/annotations?entity=5e6620d376d8950077a840bc&properties.imgName=AAA%20(595).JPG HTTP/1.1 200 2 - 6.171 ms
::ffff:172.18.0.2 - GET /api/v1/annotations?entity=5e6620d376d8950077a840bc&properties.imgName=AAA%20(595).JPG HTTP/1.1 304 - - 11.952 ms
::ffff:172.18.0.2 - GET /api/v1/annotations?entity=5e6620d376d8950077a840bc&properties.imgName=AAA%20(595).JPG HTTP/1.1 304 - - 3.255 ms
::ffff:172.18.0.2 - GET /api/v1/projects/flat HTTP/1.1 200 895 - 51.256 ms
::ffff:172.18.0.2 - GET /api/v1/organisations/mine HTTP/1.1 200 243 - 48.735 ms
::ffff:172.18.0.2 - GET /api/v1/projects/flat HTTP/1.1 200 895 - 22.886 ms
::ffff:172.18.0.2 - GET /api/v1/organisations/mine HTTP/1.1 200 243 - 29.186 ms
::ffff:172.18.0.2 - GET /api/v1/projects/flat HTTP/1.1 200 895 - 50.735 ms
::ffff:172.18.0.2 - GET /api/v1/organisations/mine HTTP/1.1 200 243 - 50.437 ms
::ffff:172.18.0.2 - GET /api/v1/projects/flat HTTP/1.1 200 895 - 30.987 ms
::ffff:172.18.0.2 - GET /api/v1/organisations/mine HTTP/1.1 200 243 - 37.877 ms
::ffff:172.18.0.2 - GET /api/v1/projects/5e6620d376d8950077a840bc HTTP/1.1 200 2890 - 15.711 ms
::ffff:172.18.0.2 - GET /api/v1/projects/5e6620d376d8950077a840bc HTTP/1.1 200 2890 - 10.943 ms
::ffff:172.18.0.2 - GET /api/v1/projects/flat HTTP/1.1 200 895 - 15.784 ms
::ffff:172.18.0.2 - GET /api/v1/projects/flat HTTP/1.1 200 895 - 21.808 ms
::ffff:172.18.0.2 - GET /api/v1/organisations/mine HTTP/1.1 200 243 - 21.305 ms
::ffff:172.18.0.2 - GET /api/v1/projects/flat HTTP/1.1 200 895 - 22.853 ms
::ffff:172.18.0.2 - GET /api/v1/projects/5e6620d376d8950077a840bc HTTP/1.1 200 2890 - 25.588 ms
::ffff:172.18.0.2 - GET /api/v1/projects/5e6620d376d8950077a840bc HTTP/1.1 200 2890 - 11.899 ms
::ffff:172.18.0.2 - GET /api/v1/projects/flat HTTP/1.1 200 895 - 27.398 ms
::ffff:172.18.0.2 - GET /api/v1/projects/flat HTTP/1.1 200 895 - 17.275 ms
::ffff:172.18.0.2 - GET /api/v1/projects/flat HTTP/1.1 200 514 - 57.461 ms
::ffff:172.18.0.2 - GET /api/v1/organisations/mine HTTP/1.1 200 236 - 68.765 ms
::ffff:172.18.0.2 - GET /api/v1/organisations/mine HTTP/1.1 200 243 - 47.295 ms
::ffff:172.18.0.2 - GET /api/v1/projects/flat HTTP/1.1 200 895 - 47.766 ms
