::ffff:172.27.0.5 - GET / HTTP/1.1 400 13 - 43.103 ms
::ffff:172.27.0.5 - GET / HTTP/1.1 400 13 - 1.275 ms
::ffff:172.27.0.5 - GET / HTTP/1.1 400 13 - 0.759 ms
::ffff:172.27.0.5 - GET / HTTP/1.1 400 13 - 3.920 ms
